0 0.66875 0.563542 0.6625 0.872917
0 0.671875 0.565625 0.65625 0.86875
0 0.671875 0.565625 0.65625 0.86875
0 0.672656 0.566667 0.654688 0.866667
0 0.672656 0.566667 0.654688 0.866667
0 0.672656 0.566667 0.654688 0.866667
0 0.672656 0.566667 0.654688 0.866667
0 0.672656 0.566667 0.654688 0.866667
0 0.671875 0.564583 0.65625 0.870833
0 0.671875 0.564583 0.65625 0.870833
0 0.671875 0.564583 0.65625 0.870833
0 0.671875 0.564583 0.65625 0.870833
0 0.671875 0.564583 0.65625 0.870833
0 0.673437 0.565625 0.653125 0.86875
0 0.673437 0.565625 0.653125 0.86875
0 0.673437 0.565625 0.653125 0.86875
0 0.673437 0.565625 0.653125 0.86875
0 0.673437 0.565625 0.653125 0.86875
0 0.673437 0.565625 0.653125 0.86875
0 0.671875 0.563542 0.65625 0.872917
0 0.671875 0.563542 0.65625 0.872917
0 0.671875 0.563542 0.65625 0.872917
0 0.671875 0.563542 0.65625 0.872917
0 0.671875 0.563542 0.65625 0.872917
0 0.671875 0.563542 0.65625 0.872917
0 0.670313 0.563542 0.659375 0.872917
0 0.670313 0.563542 0.659375 0.872917
0 0.670313 0.563542 0.659375 0.872917
0 0.670313 0.563542 0.659375 0.872917
0 0.670313 0.563542 0.659375 0.872917
0 0.670313 0.563542 0.659375 0.872917
0 0.667188 0.565625 0.665625 0.86875
0 0.667188 0.565625 0.665625 0.86875
0 0.667188 0.565625 0.665625 0.86875
0 0.667188 0.565625 0.665625 0.86875
0 0.667188 0.565625 0.665625 0.86875
0 0.667188 0.565625 0.665625 0.86875
0 0.673437 0.569792 0.653125 0.860417
0 0.673437 0.569792 0.653125 0.860417
0 0.673437 0.569792 0.653125 0.860417
0 0.673437 0.569792 0.653125 0.860417
0 0.673437 0.569792 0.653125 0.860417
0 0.673437 0.569792 0.653125 0.860417
56 0.636719 0.402083 0.126563 0.0875
0 0.675 0.569792 0.65 0.852083
56 0.636719 0.402083 0.126563 0.0875
0 0.675 0.569792 0.65 0.852083
56 0.636719 0.402083 0.126563 0.0875
0 0.675 0.569792 0.65 0.852083
56 0.636719 0.402083 0.126563 0.0875
0 0.675 0.569792 0.65 0.852083
56 0.636719 0.402083 0.126563 0.0875
0 0.675 0.569792 0.65 0.852083
56 0.636719 0.402083 0.126563 0.0875
0 0.675 0.569792 0.65 0.852083
0 0.678125 0.570833 0.64375 0.841667
0 0.678125 0.570833 0.64375 0.841667
0 0.678125 0.570833 0.64375 0.841667
0 0.678125 0.570833 0.64375 0.841667
0 0.678125 0.570833 0.64375 0.841667
0 0.678125 0.570833 0.64375 0.841667
0 0.683594 0.565625 0.632812 0.852083
0 0.683594 0.565625 0.632812 0.852083
0 0.683594 0.565625 0.632812 0.852083
0 0.683594 0.565625 0.632812 0.852083
0 0.683594 0.565625 0.632812 0.852083
0 0.6875 0.561458 0.625 0.835417
0 0.6875 0.561458 0.625 0.835417
0 0.6875 0.561458 0.625 0.835417
0 0.6875 0.561458 0.625 0.835417
0 0.6875 0.561458 0.625 0.835417
0 0.6875 0.561458 0.625 0.835417
0 0.679688 0.552083 0.640625 0.8625
0 0.679688 0.552083 0.640625 0.8625
0 0.679688 0.552083 0.640625 0.8625
0 0.679688 0.552083 0.640625 0.8625
0 0.679688 0.552083 0.640625 0.8625
0 0.679688 0.552083 0.640625 0.8625
67 0.696875 0.282292 0.459375 0.35625
0 0.676562 0.51875 0.646875 0.895833
67 0.696875 0.282292 0.459375 0.35625
0 0.676562 0.51875 0.646875 0.895833
67 0.696875 0.282292 0.459375 0.35625
0 0.676562 0.51875 0.646875 0.895833
67 0.696875 0.282292 0.459375 0.35625
0 0.676562 0.51875 0.646875 0.895833
67 0.696875 0.282292 0.459375 0.35625
0 0.676562 0.51875 0.646875 0.895833
67 0.696875 0.282292 0.459375 0.35625
0 0.676562 0.51875 0.646875 0.895833
67 0.708594 0.292708 0.442187 0.364583
0 0.675781 0.515625 0.648438 0.910417
67 0.708594 0.292708 0.442187 0.364583
0 0.675781 0.515625 0.648438 0.910417
67 0.708594 0.292708 0.442187 0.364583
0 0.675781 0.515625 0.648438 0.910417
67 0.708594 0.292708 0.442187 0.364583
0 0.675781 0.515625 0.648438 0.910417
67 0.708594 0.292708 0.442187 0.364583
0 0.675781 0.515625 0.648438 0.910417
67 0.708594 0.292708 0.442187 0.364583
0 0.675781 0.515625 0.648438 0.910417
67 0.689062 0.297917 0.453125 0.370833
0 0.675781 0.515625 0.648438 0.897917
67 0.689062 0.297917 0.453125 0.370833
0 0.675781 0.515625 0.648438 0.897917
67 0.689062 0.297917 0.453125 0.370833
0 0.675781 0.515625 0.648438 0.897917
67 0.689062 0.297917 0.453125 0.370833
0 0.675781 0.515625 0.648438 0.897917
67 0.689062 0.297917 0.453125 0.370833
0 0.675781 0.515625 0.648438 0.897917
67 0.689062 0.297917 0.453125 0.370833
0 0.675781 0.515625 0.648438 0.897917
67 0.685938 0.323958 0.44375 0.377083
0 0.678906 0.54375 0.642187 0.85
67 0.685938 0.323958 0.44375 0.377083
0 0.678906 0.54375 0.642187 0.85
67 0.685938 0.323958 0.44375 0.377083
0 0.678906 0.54375 0.642187 0.85
67 0.685938 0.323958 0.44375 0.377083
0 0.678906 0.54375 0.642187 0.85
67 0.685938 0.323958 0.44375 0.377083
0 0.678906 0.54375 0.642187 0.85
0 0.678906 0.541667 0.642187 0.841667
67 0.678906 0.338542 0.442187 0.36875
0 0.678906 0.541667 0.642187 0.841667
67 0.678906 0.338542 0.442187 0.36875
0 0.678906 0.541667 0.642187 0.841667
67 0.678906 0.338542 0.442187 0.36875
0 0.678906 0.541667 0.642187 0.841667
67 0.678906 0.338542 0.442187 0.36875
0 0.678906 0.541667 0.642187 0.841667
67 0.678906 0.338542 0.442187 0.36875
0 0.678906 0.541667 0.642187 0.841667
67 0.678906 0.338542 0.442187 0.36875
67 0.685156 0.357292 0.457812 0.385417
0 0.676562 0.5625 0.646875 0.820833
67 0.685156 0.357292 0.457812 0.385417
0 0.676562 0.5625 0.646875 0.820833
67 0.685156 0.357292 0.457812 0.385417
0 0.676562 0.5625 0.646875 0.820833
67 0.685156 0.357292 0.457812 0.385417
0 0.676562 0.5625 0.646875 0.820833
67 0.685156 0.357292 0.457812 0.385417
0 0.676562 0.5625 0.646875 0.820833
67 0.685156 0.357292 0.457812 0.385417
0 0.676562 0.5625 0.646875 0.820833
67 0.692969 0.379167 0.395312 0.425
0 0.68125 0.570833 0.6375 0.816667
67 0.692969 0.379167 0.395312 0.425
0 0.68125 0.570833 0.6375 0.816667
67 0.692969 0.379167 0.395312 0.425
0 0.68125 0.570833 0.6375 0.816667
67 0.692969 0.379167 0.395312 0.425
0 0.68125 0.570833 0.6375 0.816667
67 0.692969 0.379167 0.395312 0.425
0 0.68125 0.570833 0.6375 0.816667
67 0.692969 0.379167 0.395312 0.425
0 0.68125 0.570833 0.6375 0.816667
67 0.692969 0.430208 0.173438 0.539583
0 0.685156 0.560417 0.623438 0.833333
67 0.692969 0.430208 0.173438 0.539583
0 0.685156 0.560417 0.623438 0.833333
67 0.692969 0.430208 0.173438 0.539583
0 0.685156 0.560417 0.623438 0.833333
67 0.692969 0.430208 0.173438 0.539583
0 0.685156 0.560417 0.623438 0.833333
67 0.692969 0.430208 0.173438 0.539583
0 0.685156 0.560417 0.623438 0.833333
67 0.692969 0.430208 0.173438 0.539583
0 0.685156 0.560417 0.623438 0.833333
56 0.39375 0.735417 0.2 0.475
0 0.691406 0.465625 0.160938 0.585417
0 0.702344 0.565625 0.589063 0.827083
67 0.698438 0.475 0.134375 0.558333
56 0.39375 0.735417 0.2 0.475
0 0.691406 0.465625 0.160938 0.585417
0 0.702344 0.565625 0.589063 0.827083
67 0.698438 0.475 0.134375 0.558333
56 0.39375 0.735417 0.2 0.475
0 0.691406 0.465625 0.160938 0.585417
0 0.702344 0.565625 0.589063 0.827083
67 0.698438 0.475 0.134375 0.558333
56 0.39375 0.735417 0.2 0.475
0 0.691406 0.465625 0.160938 0.585417
0 0.702344 0.565625 0.589063 0.827083
67 0.698438 0.475 0.134375 0.558333
56 0.39375 0.735417 0.2 0.475
0 0.691406 0.465625 0.160938 0.585417
0 0.702344 0.565625 0.589063 0.827083
67 0.698438 0.475 0.134375 0.558333
0 0.677344 0.492708 0.160938 0.59375
0 0.703906 0.573958 0.585938 0.81875
67 0.678125 0.49375 0.15625 0.583333
0 0.677344 0.492708 0.160938 0.59375
0 0.703906 0.573958 0.585938 0.81875
67 0.678125 0.49375 0.15625 0.583333
0 0.677344 0.492708 0.160938 0.59375
0 0.703906 0.573958 0.585938 0.81875
67 0.678125 0.49375 0.15625 0.583333
0 0.677344 0.492708 0.160938 0.59375
0 0.703906 0.573958 0.585938 0.81875
67 0.678125 0.49375 0.15625 0.583333
0 0.677344 0.492708 0.160938 0.59375
0 0.703906 0.573958 0.585938 0.81875
67 0.678125 0.49375 0.15625 0.583333
0 0.677344 0.492708 0.160938 0.59375
0 0.703906 0.573958 0.585938 0.81875
67 0.678125 0.49375 0.15625 0.583333
0 0.679688 0.501042 0.121875 0.564583
0 0.685938 0.571875 0.565625 0.83125
67 0.678906 0.501042 0.120312 0.55625
0 0.679688 0.501042 0.121875 0.564583
0 0.685938 0.571875 0.565625 0.83125
67 0.678906 0.501042 0.120312 0.55625
0 0.679688 0.501042 0.121875 0.564583
0 0.685938 0.571875 0.565625 0.83125
67 0.678906 0.501042 0.120312 0.55625
0 0.679688 0.501042 0.121875 0.564583
0 0.685938 0.571875 0.565625 0.83125
67 0.678906 0.501042 0.120312 0.55625
0 0.679688 0.501042 0.121875 0.564583
0 0.685938 0.571875 0.565625 0.83125
67 0.678906 0.501042 0.120312 0.55625
0 0.679688 0.501042 0.121875 0.564583
0 0.685938 0.571875 0.565625 0.83125
67 0.678906 0.501042 0.120312 0.55625
0 0.674219 0.508333 0.132812 0.5625
0 0.675 0.561458 0.65 0.80625
67 0.674219 0.509375 0.129688 0.55625
0 0.674219 0.508333 0.132812 0.5625
0 0.675 0.561458 0.65 0.80625
67 0.674219 0.509375 0.129688 0.55625
0 0.674219 0.508333 0.132812 0.5625
0 0.675 0.561458 0.65 0.80625
67 0.674219 0.509375 0.129688 0.55625
0 0.674219 0.508333 0.132812 0.5625
0 0.675 0.561458 0.65 0.80625
67 0.674219 0.509375 0.129688 0.55625
0 0.674219 0.508333 0.132812 0.5625
0 0.675 0.561458 0.65 0.80625
67 0.674219 0.509375 0.129688 0.55625
0 0.674219 0.508333 0.132812 0.5625
0 0.675 0.561458 0.65 0.80625
67 0.674219 0.509375 0.129688 0.55625
0 0.68125 0.510417 0.1125 0.5375
0 0.708594 0.58125 0.576563 0.829167
67 0.68125 0.511458 0.1125 0.53125
0 0.68125 0.510417 0.1125 0.5375
0 0.708594 0.58125 0.576563 0.829167
67 0.68125 0.511458 0.1125 0.53125
0 0.68125 0.510417 0.1125 0.5375
0 0.708594 0.58125 0.576563 0.829167
67 0.68125 0.511458 0.1125 0.53125
0 0.68125 0.510417 0.1125 0.5375
0 0.708594 0.58125 0.576563 0.829167
67 0.68125 0.511458 0.1125 0.53125
0 0.68125 0.510417 0.1125 0.5375
0 0.708594 0.58125 0.576563 0.829167
67 0.68125 0.511458 0.1125 0.53125
56 0.389844 0.739583 0.189063 0.475
67 0.65625 0.485417 0.13125 0.325
0 0.710938 0.566667 0.578125 0.8375
56 0.389844 0.739583 0.189063 0.475
67 0.65625 0.485417 0.13125 0.325
0 0.710938 0.566667 0.578125 0.8375
56 0.389844 0.739583 0.189063 0.475
67 0.65625 0.485417 0.13125 0.325
0 0.710938 0.566667 0.578125 0.8375
56 0.389844 0.739583 0.189063 0.475
67 0.65625 0.485417 0.13125 0.325
0 0.710938 0.566667 0.578125 0.8375
56 0.389844 0.739583 0.189063 0.475
67 0.65625 0.485417 0.13125 0.325
0 0.710938 0.566667 0.578125 0.8375
56 0.389844 0.739583 0.189063 0.475
67 0.65625 0.485417 0.13125 0.325
0 0.710938 0.566667 0.578125 0.8375
67 0.625 0.480208 0.1 0.364583
0 0.692187 0.572917 0.590625 0.816667
67 0.625 0.480208 0.1 0.364583
0 0.692187 0.572917 0.590625 0.816667
67 0.625 0.480208 0.1 0.364583
0 0.692187 0.572917 0.590625 0.816667
67 0.625 0.480208 0.1 0.364583
0 0.692187 0.572917 0.590625 0.816667
67 0.625 0.480208 0.1 0.364583
0 0.692187 0.572917 0.590625 0.816667
67 0.625 0.480208 0.1 0.364583
0 0.692187 0.572917 0.590625 0.816667
0 0.726562 0.582292 0.540625 0.835417
67 0.675 0.470833 0.10625 0.425
0 0.726562 0.582292 0.540625 0.835417
67 0.675 0.470833 0.10625 0.425
0 0.726562 0.582292 0.540625 0.835417
67 0.675 0.470833 0.10625 0.425
0 0.726562 0.582292 0.540625 0.835417
67 0.675 0.470833 0.10625 0.425
0 0.726562 0.582292 0.540625 0.835417
67 0.675 0.470833 0.10625 0.425
0 0.726562 0.582292 0.540625 0.835417
67 0.675 0.470833 0.10625 0.425
0 0.653125 0.523958 0.2125 0.560417
0 0.742188 0.573958 0.515625 0.852083
67 0.664844 0.514583 0.185937 0.520833
0 0.653125 0.523958 0.2125 0.560417
0 0.742188 0.573958 0.515625 0.852083
67 0.664844 0.514583 0.185937 0.520833
0 0.653125 0.523958 0.2125 0.560417
0 0.742188 0.573958 0.515625 0.852083
67 0.664844 0.514583 0.185937 0.520833
0 0.653125 0.523958 0.2125 0.560417
0 0.742188 0.573958 0.515625 0.852083
67 0.664844 0.514583 0.185937 0.520833
0 0.653125 0.523958 0.2125 0.560417
0 0.742188 0.573958 0.515625 0.852083
67 0.664844 0.514583 0.185937 0.520833
0 0.725 0.570833 0.525 0.841667
0 0.663281 0.522917 0.201562 0.570833
67 0.675781 0.5125 0.170312 0.508333
0 0.725 0.570833 0.525 0.841667
0 0.663281 0.522917 0.201562 0.570833
67 0.675781 0.5125 0.170312 0.508333
0 0.725 0.570833 0.525 0.841667
0 0.663281 0.522917 0.201562 0.570833
67 0.675781 0.5125 0.170312 0.508333
0 0.725 0.570833 0.525 0.841667
0 0.663281 0.522917 0.201562 0.570833
67 0.675781 0.5125 0.170312 0.508333
0 0.725 0.570833 0.525 0.841667
0 0.663281 0.522917 0.201562 0.570833
67 0.675781 0.5125 0.170312 0.508333
0 0.725 0.570833 0.525 0.841667
0 0.663281 0.522917 0.201562 0.570833
67 0.675781 0.5125 0.170312 0.508333
0 0.66875 0.520833 0.2 0.541667
67 0.674219 0.519792 0.192188 0.51875
0 0.66875 0.520833 0.2 0.541667
67 0.674219 0.519792 0.192188 0.51875
0 0.66875 0.520833 0.2 0.541667
67 0.674219 0.519792 0.192188 0.51875
0 0.66875 0.520833 0.2 0.541667
67 0.674219 0.519792 0.192188 0.51875
0 0.66875 0.520833 0.2 0.541667
67 0.674219 0.519792 0.192188 0.51875
0 0.66875 0.520833 0.2 0.541667
67 0.674219 0.519792 0.192188 0.51875
0 0.68125 0.554167 0.18125 0.6
56 0.391406 0.711458 0.185937 0.40625
67 0.708594 0.41875 0.123438 0.254167
67 0.682031 0.55625 0.176563 0.583333
0 0.710938 0.56875 0.54375 0.754167
0 0.68125 0.554167 0.18125 0.6
56 0.391406 0.711458 0.185937 0.40625
67 0.708594 0.41875 0.123438 0.254167
67 0.682031 0.55625 0.176563 0.583333
0 0.710938 0.56875 0.54375 0.754167
0 0.68125 0.554167 0.18125 0.6
56 0.391406 0.711458 0.185937 0.40625
67 0.708594 0.41875 0.123438 0.254167
67 0.682031 0.55625 0.176563 0.583333
0 0.710938 0.56875 0.54375 0.754167
0 0.68125 0.554167 0.18125 0.6
56 0.391406 0.711458 0.185937 0.40625
67 0.708594 0.41875 0.123438 0.254167
67 0.682031 0.55625 0.176563 0.583333
0 0.710938 0.56875 0.54375 0.754167
0 0.68125 0.554167 0.18125 0.6
56 0.391406 0.711458 0.185937 0.40625
67 0.708594 0.41875 0.123438 0.254167
67 0.682031 0.55625 0.176563 0.583333
0 0.710938 0.56875 0.54375 0.754167
56 0.392969 0.732292 0.192188 0.452083
0 0.717188 0.56875 0.5625 0.825
56 0.392969 0.732292 0.192188 0.452083
0 0.717188 0.56875 0.5625 0.825
56 0.392969 0.732292 0.192188 0.452083
0 0.717188 0.56875 0.5625 0.825
56 0.392969 0.732292 0.192188 0.452083
0 0.717188 0.56875 0.5625 0.825
56 0.392969 0.732292 0.192188 0.452083
0 0.717188 0.56875 0.5625 0.825
56 0.392969 0.732292 0.192188 0.452083
0 0.717188 0.56875 0.5625 0.825
56 0.39375 0.741667 0.190625 0.483333
67 0.894531 0.673958 0.167187 0.489583
0 0.721094 0.563542 0.557813 0.822917
56 0.39375 0.741667 0.190625 0.483333
67 0.894531 0.673958 0.167187 0.489583
0 0.721094 0.563542 0.557813 0.822917
56 0.39375 0.741667 0.190625 0.483333
67 0.894531 0.673958 0.167187 0.489583
0 0.721094 0.563542 0.557813 0.822917
56 0.39375 0.741667 0.190625 0.483333
67 0.894531 0.673958 0.167187 0.489583
0 0.721094 0.563542 0.557813 0.822917
56 0.39375 0.741667 0.190625 0.483333
67 0.894531 0.673958 0.167187 0.489583
0 0.721094 0.563542 0.557813 0.822917
56 0.39375 0.741667 0.190625 0.483333
67 0.894531 0.673958 0.167187 0.489583
0 0.721094 0.563542 0.557813 0.822917
56 0.392969 0.740625 0.185937 0.48125
67 0.884375 0.5125 0.128125 0.241667
67 0.907812 0.632292 0.184375 0.464583
0 0.714844 0.566667 0.539062 0.841667
56 0.392969 0.740625 0.185937 0.48125
67 0.884375 0.5125 0.128125 0.241667
67 0.907812 0.632292 0.184375 0.464583
0 0.714844 0.566667 0.539062 0.841667
56 0.392969 0.740625 0.185937 0.48125
67 0.884375 0.5125 0.128125 0.241667
67 0.907812 0.632292 0.184375 0.464583
0 0.714844 0.566667 0.539062 0.841667
56 0.392969 0.740625 0.185937 0.48125
67 0.884375 0.5125 0.128125 0.241667
67 0.907812 0.632292 0.184375 0.464583
0 0.714844 0.566667 0.539062 0.841667
56 0.392969 0.740625 0.185937 0.48125
67 0.884375 0.5125 0.128125 0.241667
67 0.907812 0.632292 0.184375 0.464583
0 0.714844 0.566667 0.539062 0.841667
56 0.392969 0.740625 0.185937 0.48125
67 0.884375 0.5125 0.128125 0.241667
67 0.907812 0.632292 0.184375 0.464583
0 0.714844 0.566667 0.539062 0.841667
56 0.390625 0.722917 0.1875 0.429167
0 0.692969 0.563542 0.614062 0.852083
56 0.390625 0.722917 0.1875 0.429167
0 0.692969 0.563542 0.614062 0.852083
56 0.390625 0.722917 0.1875 0.429167
0 0.692969 0.563542 0.614062 0.852083
56 0.390625 0.722917 0.1875 0.429167
0 0.692969 0.563542 0.614062 0.852083
56 0.390625 0.722917 0.1875 0.429167
0 0.692969 0.563542 0.614062 0.852083
0 0.65625 0.563542 0.6875 0.86875
0 0.65625 0.563542 0.6875 0.86875
0 0.65625 0.563542 0.6875 0.86875
0 0.65625 0.563542 0.6875 0.86875
0 0.65625 0.563542 0.6875 0.86875
0 0.65625 0.563542 0.6875 0.86875
0 0.645312 0.559375 0.709375 0.85625
0 0.645312 0.559375 0.709375 0.85625
0 0.645312 0.559375 0.709375 0.85625
0 0.645312 0.559375 0.709375 0.85625
0 0.645312 0.559375 0.709375 0.85625
0 0.645312 0.559375 0.709375 0.85625
0 0.646875 0.561458 0.70625 0.860417
0 0.646875 0.561458 0.70625 0.860417
0 0.646875 0.561458 0.70625 0.860417
0 0.646875 0.561458 0.70625 0.860417
0 0.646875 0.561458 0.70625 0.860417
0 0.646875 0.561458 0.70625 0.860417
0 0.648438 0.560417 0.703125 0.8625
0 0.648438 0.560417 0.703125 0.8625
0 0.648438 0.560417 0.703125 0.8625
0 0.648438 0.560417 0.703125 0.8625
0 0.648438 0.560417 0.703125 0.8625
0 0.648438 0.560417 0.703125 0.8625
0 0.647656 0.560417 0.704687 0.8625
0 0.647656 0.560417 0.704687 0.8625
0 0.647656 0.560417 0.704687 0.8625
0 0.647656 0.560417 0.704687 0.8625
0 0.647656 0.560417 0.704687 0.8625
0 0.647656 0.560417 0.704687 0.8625
0 0.649219 0.559375 0.701563 0.864583
0 0.649219 0.559375 0.701563 0.864583
0 0.649219 0.559375 0.701563 0.864583
0 0.649219 0.559375 0.701563 0.864583
0 0.649219 0.559375 0.701563 0.864583
0 0.649219 0.559375 0.701563 0.864583
0 0.648438 0.559375 0.703125 0.85625
0 0.648438 0.559375 0.703125 0.85625
0 0.648438 0.559375 0.703125 0.85625
0 0.648438 0.559375 0.703125 0.85625
0 0.648438 0.559375 0.703125 0.85625
0 0.648438 0.559375 0.703125 0.85625
0 0.648438 0.566667 0.703125 0.866667
0 0.648438 0.566667 0.703125 0.866667
0 0.648438 0.566667 0.703125 0.866667
0 0.648438 0.566667 0.703125 0.866667
0 0.648438 0.566667 0.703125 0.866667
0 0.648438 0.566667 0.703125 0.866667
0 0.65625 0.567708 0.684375 0.852083
0 0.65625 0.567708 0.684375 0.852083
0 0.65625 0.567708 0.684375 0.852083
0 0.65625 0.567708 0.684375 0.852083
0 0.65625 0.567708 0.684375 0.852083
67 0.7375 0.629167 0.09375 0.241667
0 0.651563 0.569792 0.684375 0.85625
67 0.7375 0.629167 0.09375 0.241667
0 0.651563 0.569792 0.684375 0.85625
67 0.7375 0.629167 0.09375 0.241667
0 0.651563 0.569792 0.684375 0.85625
67 0.7375 0.629167 0.09375 0.241667
0 0.651563 0.569792 0.684375 0.85625
67 0.7375 0.629167 0.09375 0.241667
0 0.651563 0.569792 0.684375 0.85625
67 0.7375 0.629167 0.09375 0.241667
0 0.651563 0.569792 0.684375 0.85625
0 0.658594 0.559375 0.679688 0.839583
0 0.658594 0.559375 0.679688 0.839583
0 0.658594 0.559375 0.679688 0.839583
0 0.658594 0.559375 0.679688 0.839583
0 0.658594 0.559375 0.679688 0.839583
0 0.658594 0.559375 0.679688 0.839583
0 0.621875 0.55625 0.75625 0.8625
0 0.621875 0.55625 0.75625 0.8625
0 0.621875 0.55625 0.75625 0.8625
0 0.621875 0.55625 0.75625 0.8625
0 0.621875 0.55625 0.75625 0.8625
0 0.621875 0.55625 0.75625 0.8625
0 0.621875 0.560417 0.75625 0.870833
0 0.621875 0.560417 0.75625 0.870833
0 0.621875 0.560417 0.75625 0.870833
0 0.621875 0.560417 0.75625 0.870833
0 0.621875 0.560417 0.75625 0.870833
0 0.621875 0.560417 0.75625 0.870833
67 0.0765625 0.359375 0.08125 0.38125
65 0.0757812 0.354167 0.0796875 0.4
0 0.621094 0.558333 0.757812 0.866667
67 0.0765625 0.359375 0.08125 0.38125
65 0.0757812 0.354167 0.0796875 0.4
0 0.621094 0.558333 0.757812 0.866667
67 0.0765625 0.359375 0.08125 0.38125
65 0.0757812 0.354167 0.0796875 0.4
0 0.621094 0.558333 0.757812 0.866667
67 0.0765625 0.359375 0.08125 0.38125
65 0.0757812 0.354167 0.0796875 0.4
0 0.621094 0.558333 0.757812 0.866667
67 0.0765625 0.359375 0.08125 0.38125
65 0.0757812 0.354167 0.0796875 0.4
0 0.621094 0.558333 0.757812 0.866667
67 0.0765625 0.359375 0.08125 0.38125
65 0.0757812 0.354167 0.0796875 0.4
0 0.621094 0.558333 0.757812 0.866667
65 0.0703125 0.360417 0.075 0.420833
0 0.617969 0.557292 0.764063 0.86875
65 0.0703125 0.360417 0.075 0.420833
0 0.617969 0.557292 0.764063 0.86875
65 0.0703125 0.360417 0.075 0.420833
0 0.617969 0.557292 0.764063 0.86875
65 0.0703125 0.360417 0.075 0.420833
0 0.617969 0.557292 0.764063 0.86875
65 0.0703125 0.360417 0.075 0.420833
0 0.617969 0.557292 0.764063 0.86875
65 0.0703125 0.360417 0.075 0.420833
0 0.617969 0.557292 0.764063 0.86875
65 0.071875 0.365625 0.08125 0.40625
0 0.615625 0.558333 0.76875 0.870833
65 0.071875 0.365625 0.08125 0.40625
0 0.615625 0.558333 0.76875 0.870833
65 0.071875 0.365625 0.08125 0.40625
0 0.615625 0.558333 0.76875 0.870833
65 0.071875 0.365625 0.08125 0.40625
0 0.615625 0.558333 0.76875 0.870833
65 0.071875 0.365625 0.08125 0.40625
0 0.615625 0.558333 0.76875 0.870833
65 0.0726563 0.371875 0.0859375 0.385417
0 0.621094 0.558333 0.757812 0.866667
65 0.0726563 0.371875 0.0859375 0.385417
0 0.621094 0.558333 0.757812 0.866667
65 0.0726563 0.371875 0.0859375 0.385417
0 0.621094 0.558333 0.757812 0.866667
65 0.0726563 0.371875 0.0859375 0.385417
0 0.621094 0.558333 0.757812 0.866667
65 0.0726563 0.371875 0.0859375 0.385417
0 0.621094 0.558333 0.757812 0.866667
65 0.0726563 0.371875 0.0859375 0.385417
0 0.621094 0.558333 0.757812 0.866667
65 0.0757812 0.372917 0.0859375 0.379167
0 0.621875 0.557292 0.75625 0.86875
65 0.0757812 0.372917 0.0859375 0.379167
0 0.621875 0.557292 0.75625 0.86875
65 0.0757812 0.372917 0.0859375 0.379167
0 0.621875 0.557292 0.75625 0.86875
65 0.0757812 0.372917 0.0859375 0.379167
0 0.621875 0.557292 0.75625 0.86875
65 0.0757812 0.372917 0.0859375 0.379167
0 0.621875 0.557292 0.75625 0.86875
65 0.0757812 0.372917 0.0859375 0.379167
0 0.621875 0.557292 0.75625 0.86875
65 0.0804688 0.367708 0.0890625 0.38125
0 0.619531 0.559375 0.760938 0.864583
65 0.0804688 0.367708 0.0890625 0.38125
0 0.619531 0.559375 0.760938 0.864583
65 0.0804688 0.367708 0.0890625 0.38125
0 0.619531 0.559375 0.760938 0.864583
65 0.0804688 0.367708 0.0890625 0.38125
0 0.619531 0.559375 0.760938 0.864583
65 0.0804688 0.367708 0.0890625 0.38125
0 0.619531 0.559375 0.760938 0.864583
65 0.0804688 0.367708 0.0890625 0.38125
0 0.619531 0.559375 0.760938 0.864583
65 0.0796875 0.366667 0.0875 0.379167
0 0.61875 0.558333 0.7625 0.870833
65 0.0796875 0.366667 0.0875 0.379167
0 0.61875 0.558333 0.7625 0.870833
65 0.0796875 0.366667 0.0875 0.379167
0 0.61875 0.558333 0.7625 0.870833
65 0.0796875 0.366667 0.0875 0.379167
0 0.61875 0.558333 0.7625 0.870833
65 0.0796875 0.366667 0.0875 0.379167
0 0.61875 0.558333 0.7625 0.870833
65 0.0796875 0.366667 0.0875 0.379167
0 0.61875 0.558333 0.7625 0.870833
65 0.08125 0.36875 0.0875 0.379167
0 0.615625 0.557292 0.76875 0.86875
65 0.08125 0.36875 0.0875 0.379167
0 0.615625 0.557292 0.76875 0.86875
65 0.08125 0.36875 0.0875 0.379167
0 0.615625 0.557292 0.76875 0.86875
65 0.08125 0.36875 0.0875 0.379167
0 0.615625 0.557292 0.76875 0.86875
65 0.08125 0.36875 0.0875 0.379167
0 0.615625 0.557292 0.76875 0.86875
67 0.08125 0.369792 0.0875 0.372917
65 0.0804688 0.369792 0.0890625 0.377083
0 0.619531 0.558333 0.760938 0.870833
67 0.08125 0.369792 0.0875 0.372917
65 0.0804688 0.369792 0.0890625 0.377083
0 0.619531 0.558333 0.760938 0.870833
67 0.08125 0.369792 0.0875 0.372917
65 0.0804688 0.369792 0.0890625 0.377083
0 0.619531 0.558333 0.760938 0.870833
67 0.08125 0.369792 0.0875 0.372917
65 0.0804688 0.369792 0.0890625 0.377083
0 0.619531 0.558333 0.760938 0.870833
67 0.08125 0.369792 0.0875 0.372917
65 0.0804688 0.369792 0.0890625 0.377083
0 0.619531 0.558333 0.760938 0.870833
67 0.08125 0.369792 0.0875 0.372917
65 0.0804688 0.369792 0.0890625 0.377083
0 0.619531 0.558333 0.760938 0.870833
65 0.08125 0.36875 0.0875 0.379167
0 0.621875 0.557292 0.75625 0.86875
65 0.08125 0.36875 0.0875 0.379167
0 0.621875 0.557292 0.75625 0.86875
65 0.08125 0.36875 0.0875 0.379167
0 0.621875 0.557292 0.75625 0.86875
65 0.08125 0.36875 0.0875 0.379167
0 0.621875 0.557292 0.75625 0.86875
65 0.08125 0.36875 0.0875 0.379167
0 0.621875 0.557292 0.75625 0.86875
65 0.08125 0.36875 0.0875 0.379167
0 0.621875 0.557292 0.75625 0.86875
65 0.0796875 0.370833 0.0875 0.379167
0 0.622656 0.558333 0.754687 0.866667
65 0.0796875 0.370833 0.0875 0.379167
0 0.622656 0.558333 0.754687 0.866667
65 0.0796875 0.370833 0.0875 0.379167
0 0.622656 0.558333 0.754687 0.866667
65 0.0796875 0.370833 0.0875 0.379167
0 0.622656 0.558333 0.754687 0.866667
65 0.0796875 0.370833 0.0875 0.379167
0 0.622656 0.558333 0.754687 0.866667
65 0.0796875 0.370833 0.0875 0.379167
0 0.622656 0.558333 0.754687 0.866667
67 0.08125 0.373958 0.084375 0.377083
65 0.08125 0.373958 0.084375 0.377083
0 0.620313 0.561458 0.759375 0.872917
67 0.08125 0.373958 0.084375 0.377083
65 0.08125 0.373958 0.084375 0.377083
0 0.620313 0.561458 0.759375 0.872917
67 0.08125 0.373958 0.084375 0.377083
65 0.08125 0.373958 0.084375 0.377083
0 0.620313 0.561458 0.759375 0.872917
67 0.08125 0.373958 0.084375 0.377083
65 0.08125 0.373958 0.084375 0.377083
0 0.620313 0.561458 0.759375 0.872917
67 0.08125 0.373958 0.084375 0.377083
65 0.08125 0.373958 0.084375 0.377083
0 0.620313 0.561458 0.759375 0.872917
67 0.08125 0.366667 0.0875 0.383333
65 0.08125 0.371875 0.0875 0.377083
0 0.61875 0.558333 0.7625 0.870833
67 0.08125 0.366667 0.0875 0.383333
65 0.08125 0.371875 0.0875 0.377083
0 0.61875 0.558333 0.7625 0.870833
67 0.08125 0.366667 0.0875 0.383333
65 0.08125 0.371875 0.0875 0.377083
0 0.61875 0.558333 0.7625 0.870833
67 0.08125 0.366667 0.0875 0.383333
65 0.08125 0.371875 0.0875 0.377083
0 0.61875 0.558333 0.7625 0.870833
67 0.08125 0.366667 0.0875 0.383333
65 0.08125 0.371875 0.0875 0.377083
0 0.61875 0.558333 0.7625 0.870833
67 0.08125 0.366667 0.0875 0.383333
65 0.08125 0.371875 0.0875 0.377083
0 0.61875 0.558333 0.7625 0.870833
67 0.0820312 0.365625 0.0921875 0.38125
65 0.0804688 0.370833 0.0921875 0.375
0 0.61875 0.558333 0.7625 0.866667
67 0.0820312 0.365625 0.0921875 0.38125
65 0.0804688 0.370833 0.0921875 0.375
0 0.61875 0.558333 0.7625 0.866667
67 0.0820312 0.365625 0.0921875 0.38125
65 0.0804688 0.370833 0.0921875 0.375
0 0.61875 0.558333 0.7625 0.866667
67 0.0820312 0.365625 0.0921875 0.38125
65 0.0804688 0.370833 0.0921875 0.375
0 0.61875 0.558333 0.7625 0.866667
67 0.0820312 0.365625 0.0921875 0.38125
65 0.0804688 0.370833 0.0921875 0.375
0 0.61875 0.558333 0.7625 0.866667
67 0.0820312 0.365625 0.0921875 0.38125
65 0.0804688 0.370833 0.0921875 0.375
0 0.61875 0.558333 0.7625 0.866667
67 0.0820312 0.367708 0.0890625 0.38125
65 0.08125 0.370833 0.090625 0.375
0 0.621875 0.557292 0.75625 0.872917
67 0.0820312 0.367708 0.0890625 0.38125
65 0.08125 0.370833 0.090625 0.375
0 0.621875 0.557292 0.75625 0.872917
67 0.0820312 0.367708 0.0890625 0.38125
65 0.08125 0.370833 0.090625 0.375
0 0.621875 0.557292 0.75625 0.872917
67 0.0820312 0.367708 0.0890625 0.38125
65 0.08125 0.370833 0.090625 0.375
0 0.621875 0.557292 0.75625 0.872917
67 0.0820312 0.367708 0.0890625 0.38125
65 0.08125 0.370833 0.090625 0.375
0 0.621875 0.557292 0.75625 0.872917
67 0.0820312 0.367708 0.0890625 0.38125
65 0.08125 0.370833 0.090625 0.375
0 0.621875 0.557292 0.75625 0.872917
65 0.08125 0.370833 0.0875 0.375
0 0.621094 0.557292 0.757812 0.872917
65 0.08125 0.370833 0.0875 0.375
0 0.621094 0.557292 0.757812 0.872917
65 0.08125 0.370833 0.0875 0.375
0 0.621094 0.557292 0.757812 0.872917
65 0.08125 0.370833 0.0875 0.375
0 0.621094 0.557292 0.757812 0.872917
65 0.08125 0.370833 0.0875 0.375
0 0.621094 0.557292 0.757812 0.872917
65 0.0835937 0.371875 0.0890625 0.372917
0 0.619531 0.559375 0.760938 0.872917
65 0.0835937 0.371875 0.0890625 0.372917
0 0.619531 0.559375 0.760938 0.872917
65 0.0835937 0.371875 0.0890625 0.372917
0 0.619531 0.559375 0.760938 0.872917
65 0.0835937 0.371875 0.0890625 0.372917
0 0.619531 0.559375 0.760938 0.872917
65 0.0835937 0.371875 0.0890625 0.372917
0 0.619531 0.559375 0.760938 0.872917
65 0.0835937 0.371875 0.0890625 0.372917
0 0.619531 0.559375 0.760938 0.872917
65 0.0859375 0.371875 0.0875 0.372917
0 0.617969 0.55625 0.764063 0.866667
65 0.0859375 0.371875 0.0875 0.372917
0 0.617969 0.55625 0.764063 0.866667
65 0.0859375 0.371875 0.0875 0.372917
0 0.617969 0.55625 0.764063 0.866667
65 0.0859375 0.371875 0.0875 0.372917
0 0.617969 0.55625 0.764063 0.866667
65 0.0859375 0.371875 0.0875 0.372917
0 0.617969 0.55625 0.764063 0.866667
65 0.0859375 0.371875 0.0875 0.372917
0 0.617969 0.55625 0.764063 0.866667
0 0.625 0.558333 0.75 0.866667
65 0.090625 0.375 0.084375 0.379167
0 0.625 0.558333 0.75 0.866667
65 0.090625 0.375 0.084375 0.379167
0 0.625 0.558333 0.75 0.866667
65 0.090625 0.375 0.084375 0.379167
0 0.625 0.558333 0.75 0.866667
65 0.090625 0.375 0.084375 0.379167
0 0.625 0.558333 0.75 0.866667
65 0.090625 0.375 0.084375 0.379167
0 0.625 0.558333 0.75 0.866667
65 0.090625 0.375 0.084375 0.379167
0 0.619531 0.55625 0.760938 0.870833
65 0.09375 0.376042 0.0875 0.38125
0 0.619531 0.55625 0.760938 0.870833
65 0.09375 0.376042 0.0875 0.38125
0 0.619531 0.55625 0.760938 0.870833
65 0.09375 0.376042 0.0875 0.38125
0 0.619531 0.55625 0.760938 0.870833
65 0.09375 0.376042 0.0875 0.38125
0 0.619531 0.55625 0.760938 0.870833
65 0.09375 0.376042 0.0875 0.38125
0 0.615625 0.558333 0.76875 0.866667
65 0.0976562 0.379167 0.0890625 0.379167
0 0.615625 0.558333 0.76875 0.866667
65 0.0976562 0.379167 0.0890625 0.379167
0 0.615625 0.558333 0.76875 0.866667
65 0.0976562 0.379167 0.0890625 0.379167
0 0.615625 0.558333 0.76875 0.866667
65 0.0976562 0.379167 0.0890625 0.379167
0 0.615625 0.558333 0.76875 0.866667
65 0.0976562 0.379167 0.0890625 0.379167
0 0.615625 0.558333 0.76875 0.866667
65 0.0976562 0.379167 0.0890625 0.379167
65 0.101562 0.384375 0.090625 0.389583
0 0.617188 0.555208 0.765625 0.872917
65 0.101562 0.384375 0.090625 0.389583
0 0.617188 0.555208 0.765625 0.872917
65 0.101562 0.384375 0.090625 0.389583
0 0.617188 0.555208 0.765625 0.872917
65 0.101562 0.384375 0.090625 0.389583
0 0.617188 0.555208 0.765625 0.872917
65 0.101562 0.384375 0.090625 0.389583
0 0.617188 0.555208 0.765625 0.872917
65 0.101562 0.384375 0.090625 0.389583
0 0.617188 0.555208 0.765625 0.872917
0 0.617188 0.55625 0.765625 0.870833
0 0.617188 0.55625 0.765625 0.870833
0 0.617188 0.55625 0.765625 0.870833
0 0.617188 0.55625 0.765625 0.870833
0 0.617188 0.55625 0.765625 0.870833
0 0.617188 0.55625 0.765625 0.870833
0 0.615625 0.554167 0.76875 0.875
0 0.615625 0.554167 0.76875 0.875
0 0.615625 0.554167 0.76875 0.875
0 0.615625 0.554167 0.76875 0.875
0 0.615625 0.554167 0.76875 0.875
0 0.615625 0.554167 0.76875 0.875
56 0.389062 0.59375 0.1625 0.183333
0 0.615625 0.558333 0.76875 0.870833
56 0.389062 0.59375 0.1625 0.183333
0 0.615625 0.558333 0.76875 0.870833
56 0.389062 0.59375 0.1625 0.183333
0 0.615625 0.558333 0.76875 0.870833
56 0.389062 0.59375 0.1625 0.183333
0 0.615625 0.558333 0.76875 0.870833
56 0.389062 0.59375 0.1625 0.183333
0 0.615625 0.558333 0.76875 0.870833
56 0.389062 0.59375 0.1625 0.183333
0 0.615625 0.558333 0.76875 0.870833
56 0.3875 0.672917 0.178125 0.329167
0 0.664062 0.558333 0.671875 0.85
56 0.3875 0.672917 0.178125 0.329167
0 0.664062 0.558333 0.671875 0.85
56 0.3875 0.672917 0.178125 0.329167
0 0.664062 0.558333 0.671875 0.85
56 0.3875 0.672917 0.178125 0.329167
0 0.664062 0.558333 0.671875 0.85
56 0.3875 0.672917 0.178125 0.329167
0 0.664062 0.558333 0.671875 0.85
56 0.386719 0.704167 0.173438 0.391667
0 0.661719 0.557292 0.676562 0.864583
56 0.386719 0.704167 0.173438 0.391667
0 0.661719 0.557292 0.676562 0.864583
56 0.386719 0.704167 0.173438 0.391667
0 0.661719 0.557292 0.676562 0.864583
56 0.386719 0.704167 0.173438 0.391667
0 0.661719 0.557292 0.676562 0.864583
56 0.386719 0.704167 0.173438 0.391667
0 0.661719 0.557292 0.676562 0.864583
56 0.386719 0.704167 0.173438 0.391667
0 0.661719 0.557292 0.676562 0.864583
0 0.646875 0.55625 0.70625 0.8625
0 0.646875 0.55625 0.70625 0.8625
0 0.646875 0.55625 0.70625 0.8625
0 0.646875 0.55625 0.70625 0.8625
0 0.646875 0.55625 0.70625 0.8625
0 0.646875 0.55625 0.70625 0.8625
73 0.934375 0.507292 0.06875 0.28125
0 0.626562 0.558333 0.675 0.858333
73 0.934375 0.507292 0.06875 0.28125
0 0.626562 0.558333 0.675 0.858333
73 0.934375 0.507292 0.06875 0.28125
0 0.626562 0.558333 0.675 0.858333
73 0.934375 0.507292 0.06875 0.28125
0 0.626562 0.558333 0.675 0.858333
73 0.934375 0.507292 0.06875 0.28125
0 0.626562 0.558333 0.675 0.858333
73 0.934375 0.507292 0.06875 0.28125
0 0.626562 0.558333 0.675 0.858333
0 0.640625 0.559375 0.71875 0.860417
0 0.640625 0.559375 0.71875 0.860417
0 0.640625 0.559375 0.71875 0.860417
0 0.640625 0.559375 0.71875 0.860417
0 0.640625 0.559375 0.71875 0.860417
0 0.640625 0.559375 0.71875 0.860417
0 0.640625 0.561458 0.71875 0.852083
0 0.640625 0.561458 0.71875 0.852083
0 0.640625 0.561458 0.71875 0.852083
0 0.640625 0.561458 0.71875 0.852083
0 0.640625 0.561458 0.71875 0.852083
0 0.640625 0.561458 0.71875 0.852083
0 0.634375 0.570833 0.73125 0.85
0 0.634375 0.570833 0.73125 0.85
0 0.634375 0.570833 0.73125 0.85
0 0.634375 0.570833 0.73125 0.85
0 0.634375 0.570833 0.73125 0.85
0 0.634375 0.570833 0.73125 0.85
0 0.632812 0.575 0.734375 0.833333
0 0.632812 0.575 0.734375 0.833333
0 0.632812 0.575 0.734375 0.833333
0 0.632812 0.575 0.734375 0.833333
0 0.632812 0.575 0.734375 0.833333
0 0.632812 0.575 0.734375 0.833333
0 0.632812 0.577083 0.734375 0.8375
0 0.632812 0.577083 0.734375 0.8375
0 0.632812 0.577083 0.734375 0.8375
0 0.632812 0.577083 0.734375 0.8375
0 0.632812 0.577083 0.734375 0.8375
0 0.632812 0.572917 0.73125 0.841667
0 0.632812 0.572917 0.73125 0.841667
0 0.632812 0.572917 0.73125 0.841667
0 0.632812 0.572917 0.73125 0.841667
0 0.632812 0.572917 0.73125 0.841667
0 0.632812 0.572917 0.73125 0.841667
0 0.634375 0.575 0.73125 0.841667
0 0.634375 0.575 0.73125 0.841667
0 0.634375 0.575 0.73125 0.841667
0 0.634375 0.575 0.73125 0.841667
0 0.634375 0.575 0.73125 0.841667
0 0.634375 0.575 0.73125 0.841667
0 0.638281 0.560417 0.723437 0.845833
0 0.638281 0.560417 0.723437 0.845833
0 0.638281 0.560417 0.723437 0.845833
0 0.638281 0.560417 0.723437 0.845833
0 0.638281 0.560417 0.723437 0.845833
0 0.638281 0.560417 0.723437 0.845833
0 0.639063 0.559375 0.721875 0.85625
0 0.639063 0.559375 0.721875 0.85625
