0 0.460938 0.558333 0.921875 0.883333
0 0.464063 0.554167 0.928125 0.883333
0 0.464063 0.554167 0.928125 0.883333
0 0.465625 0.558333 0.93125 0.875
0 0.465625 0.558333 0.93125 0.875
0 0.465625 0.558333 0.93125 0.875
0 0.4625 0.559375 0.925 0.88125
0 0.4625 0.559375 0.925 0.88125
0 0.4625 0.559375 0.925 0.88125
0 0.4625 0.559375 0.925 0.88125
0 0.460938 0.559375 0.921875 0.877083
0 0.460938 0.559375 0.921875 0.877083
0 0.460938 0.559375 0.921875 0.877083
0 0.460938 0.559375 0.921875 0.877083
0 0.465625 0.558333 0.93125 0.879167
0 0.465625 0.558333 0.93125 0.879167
0 0.465625 0.558333 0.93125 0.879167
0 0.463281 0.558333 0.926562 0.879167
0 0.463281 0.558333 0.926562 0.879167
0 0.466406 0.558333 0.932813 0.875
0 0.466406 0.558333 0.932813 0.875
0 0.465625 0.560417 0.93125 0.875
0 0.465625 0.560417 0.93125 0.875
0 0.526563 0.559375 0.884375 0.88125
0 0.526563 0.559375 0.884375 0.88125
0 0.526563 0.559375 0.884375 0.88125
0 0.460938 0.55625 0.921875 0.8875
0 0.460938 0.55625 0.921875 0.8875
0 0.460938 0.55625 0.921875 0.8875
0 0.460938 0.55625 0.921875 0.8875
67 0.264062 0.375 0.05 0.0875
0 0.466406 0.559375 0.904688 0.88125
67 0.264062 0.375 0.05 0.0875
0 0.466406 0.559375 0.904688 0.88125
67 0.264062 0.375 0.05 0.0875
0 0.466406 0.559375 0.904688 0.88125
0 0.46875 0.559375 0.9125 0.88125
0 0.46875 0.559375 0.9125 0.88125
0 0.46875 0.559375 0.9125 0.88125
0 0.467187 0.561458 0.915625 0.877083
0 0.467187 0.561458 0.915625 0.877083
0 0.467187 0.561458 0.915625 0.877083
0 0.465625 0.5625 0.921875 0.866667
0 0.465625 0.5625 0.921875 0.866667
0 0.465625 0.5625 0.921875 0.866667
0 0.0851562 0.5125 0.170312 0.970833
0 0.465625 0.552083 0.93125 0.8875
0 0.0851562 0.5125 0.170312 0.970833
0 0.465625 0.552083 0.93125 0.8875
0 0.0851562 0.5125 0.170312 0.970833
0 0.465625 0.552083 0.93125 0.8875
0 0.470313 0.553125 0.940625 0.89375
0 0.470313 0.553125 0.940625 0.89375
0 0.470313 0.553125 0.940625 0.89375
0 0.454688 0.553125 0.909375 0.89375
0 0.454688 0.553125 0.909375 0.89375
0 0.454688 0.553125 0.909375 0.89375
0 0.453125 0.553125 0.90625 0.89375
0 0.453125 0.553125 0.90625 0.89375
0 0.453125 0.553125 0.90625 0.89375
0 0.453125 0.553125 0.90625 0.89375
0 0.470313 0.552083 0.940625 0.8875
0 0.470313 0.552083 0.940625 0.8875
0 0.470313 0.552083 0.940625 0.8875
0 0.527344 0.547917 0.832812 0.904167
0 0.527344 0.547917 0.832812 0.904167
0 0.527344 0.547917 0.832812 0.904167
0 0.527344 0.547917 0.832812 0.904167
0 0.453906 0.5625 0.904688 0.866667
0 0.453906 0.5625 0.904688 0.866667
0 0.453906 0.5625 0.904688 0.866667
0 0.457812 0.559375 0.878125 0.88125
0 0.457812 0.559375 0.878125 0.88125
0 0.457812 0.559375 0.878125 0.88125
0 0.457812 0.559375 0.878125 0.88125
0 0.517187 0.55625 0.821875 0.8875
0 0.517187 0.55625 0.821875 0.8875
0 0.517187 0.55625 0.821875 0.8875
67 0.486719 0.265625 0.307813 0.50625
0 0.467969 0.542708 0.935938 0.897917
67 0.486719 0.265625 0.307813 0.50625
0 0.467969 0.542708 0.935938 0.897917
67 0.472656 0.307292 0.254687 0.597917
0 0.464844 0.520833 0.907812 0.95
65 0.470313 0.296875 0.25 0.572917
67 0.472656 0.307292 0.254687 0.597917
0 0.464844 0.520833 0.907812 0.95
65 0.470313 0.296875 0.25 0.572917
0 0.460156 0.526042 0.873438 0.947917
65 0.48125 0.3 0.24375 0.583333
67 0.48125 0.3 0.24375 0.583333
0 0.460156 0.526042 0.873438 0.947917
65 0.48125 0.3 0.24375 0.583333
67 0.48125 0.3 0.24375 0.583333
0 0.370313 0.554167 0.7375 0.883333
0 0.370313 0.554167 0.7375 0.883333
0 0.370313 0.554167 0.7375 0.883333
0 0.19375 0.0979167 0.065625 0.195833
0 0.40625 0.554167 0.71875 0.8625
0 0.19375 0.0979167 0.065625 0.195833
0 0.40625 0.554167 0.71875 0.8625
0 0.19375 0.0979167 0.065625 0.195833
0 0.40625 0.554167 0.71875 0.8625
0 0.286719 0.553125 0.573438 0.89375
65 0.365625 0.654167 0.11875 0.666667
67 0.367969 0.627083 0.123438 0.729167
0 0.286719 0.553125 0.573438 0.89375
65 0.365625 0.654167 0.11875 0.666667
67 0.367969 0.627083 0.123438 0.729167
67 0.35625 0.577083 0.10625 0.529167
0 0.41875 0.561458 0.721875 0.872917
67 0.35625 0.577083 0.10625 0.529167
0 0.41875 0.561458 0.721875 0.872917
0 0.142188 0.546875 0.284375 0.902083
0 0.535156 0.560417 0.598437 0.879167
67 0.336719 0.644792 0.117188 0.677083
0 0.142188 0.546875 0.284375 0.902083
0 0.535156 0.560417 0.598437 0.879167
67 0.336719 0.644792 0.117188 0.677083
0 0.517187 0.561458 0.659375 0.877083
67 0.326562 0.646875 0.11875 0.69375
0 0.517187 0.561458 0.659375 0.877083
67 0.326562 0.646875 0.11875 0.69375
0 0.519531 0.561458 0.642187 0.877083
67 0.321094 0.652083 0.114063 0.6875
0 0.519531 0.561458 0.642187 0.877083
67 0.321094 0.652083 0.114063 0.6875
0 0.519531 0.561458 0.642187 0.877083
67 0.321094 0.652083 0.114063 0.6875
65 0.321094 0.660417 0.126563 0.679167
0 0.517187 0.561458 0.665625 0.877083
67 0.317969 0.65625 0.123438 0.679167
65 0.321094 0.660417 0.126563 0.679167
0 0.517187 0.561458 0.665625 0.877083
67 0.317969 0.65625 0.123438 0.679167
0 0.371875 0.5625 0.74375 0.875
27 0.341406 0.78125 0.248437 0.354167
0 0.371875 0.5625 0.74375 0.875
27 0.341406 0.78125 0.248437 0.354167
67 0.252344 0.645833 0.504687 0.358333
0 0.426562 0.551042 0.853125 0.897917
65 0.260938 0.6375 0.521875 0.3125
67 0.252344 0.645833 0.504687 0.358333
0 0.426562 0.551042 0.853125 0.897917
65 0.260938 0.6375 0.521875 0.3125
67 0.258594 0.665625 0.504687 0.327083
0 0.417969 0.553125 0.826563 0.89375
65 0.254687 0.651042 0.509375 0.289583
67 0.258594 0.665625 0.504687 0.327083
0 0.417969 0.553125 0.826563 0.89375
65 0.254687 0.651042 0.509375 0.289583
0 0.419531 0.55625 0.839063 0.8875
65 0.258594 0.666667 0.514063 0.316667
0 0.419531 0.55625 0.839063 0.8875
65 0.258594 0.666667 0.514063 0.316667
67 0.251563 0.657292 0.503125 0.310417
0 0.420312 0.555208 0.809375 0.889583
65 0.25 0.640625 0.5 0.297917
67 0.251563 0.657292 0.503125 0.310417
0 0.420312 0.555208 0.809375 0.889583
65 0.25 0.640625 0.5 0.297917
0 0.426562 0.548958 0.840625 0.902083
65 0.240625 0.645833 0.48125 0.316667
0 0.422656 0.552083 0.832812 0.895833
65 0.240625 0.652083 0.48125 0.295833
0 0.422656 0.552083 0.832812 0.895833
65 0.240625 0.652083 0.48125 0.295833
0 0.426562 0.552083 0.821875 0.895833
65 0.242188 0.645833 0.484375 0.320833
0 0.426562 0.552083 0.821875 0.895833
65 0.242188 0.645833 0.484375 0.320833
0 0.426562 0.552083 0.821875 0.895833
65 0.242188 0.645833 0.484375 0.320833
67 0.242188 0.655208 0.484375 0.322917
0 0.428125 0.552083 0.825 0.895833
65 0.240625 0.647917 0.48125 0.3375
67 0.242188 0.655208 0.484375 0.322917
0 0.428125 0.552083 0.825 0.895833
65 0.240625 0.647917 0.48125 0.3375
67 0.24375 0.65625 0.4875 0.3125
0 0.421875 0.554167 0.81875 0.891667
65 0.241406 0.64375 0.482812 0.304167
67 0.24375 0.65625 0.4875 0.3125
0 0.421875 0.554167 0.81875 0.891667
65 0.241406 0.64375 0.482812 0.304167
0 0.514844 0.54375 0.773438 0.9125
0 0.514844 0.54375 0.773438 0.9125
0 0.514844 0.54375 0.773438 0.9125
0 0.433594 0.554167 0.867188 0.879167
0 0.433594 0.554167 0.867188 0.879167
0 0.433594 0.554167 0.867188 0.879167
0 0.430469 0.561458 0.860937 0.877083
0 0.430469 0.561458 0.860937 0.877083
0 0.430469 0.561458 0.860937 0.877083
0 0.417969 0.561458 0.835938 0.86875
0 0.417969 0.561458 0.835938 0.86875
0 0.417969 0.561458 0.835938 0.86875
0 0.434375 0.5625 0.86875 0.875
0 0.434375 0.5625 0.86875 0.875
0 0.434375 0.5625 0.86875 0.875
0 0.521094 0.566667 0.842188 0.866667
0 0.521094 0.566667 0.842188 0.866667
0 0.521094 0.566667 0.842188 0.866667
0 0.467969 0.55625 0.935938 0.879167
0 0.467969 0.55625 0.935938 0.879167
0 0.467969 0.55625 0.935938 0.879167
0 0.471875 0.557292 0.94375 0.877083
