0 0.23125 0.566667 0.4625 0.866667
0 0.229687 0.567708 0.459375 0.864583
0 0.229687 0.567708 0.459375 0.864583
0 0.229687 0.567708 0.459375 0.864583
0 0.23125 0.5625 0.4625 0.870833
0 0.23125 0.5625 0.4625 0.870833
0 0.232031 0.566667 0.464063 0.866667
0 0.232031 0.566667 0.464063 0.866667
0 0.232031 0.566667 0.464063 0.866667
0 0.23125 0.567708 0.4625 0.864583
0 0.23125 0.567708 0.4625 0.864583
0 0.23125 0.567708 0.4625 0.864583
0 0.23125 0.567708 0.4625 0.864583
0 0.23125 0.567708 0.4625 0.864583
0 0.23125 0.567708 0.4625 0.864583
0 0.23125 0.566667 0.4625 0.866667
0 0.23125 0.566667 0.4625 0.866667
0 0.23125 0.566667 0.4625 0.866667
0 0.230469 0.564583 0.460938 0.870833
0 0.230469 0.564583 0.460938 0.870833
0 0.230469 0.564583 0.460938 0.870833
0 0.23125 0.566667 0.4625 0.866667
0 0.23125 0.566667 0.4625 0.866667
0 0.23125 0.566667 0.4625 0.866667
0 0.226562 0.565625 0.453125 0.864583
0 0.226562 0.565625 0.453125 0.864583
0 0.226562 0.565625 0.453125 0.864583
0 0.225 0.566667 0.45 0.858333
0 0.225 0.566667 0.45 0.858333
0 0.225 0.566667 0.45 0.858333
0 0.225 0.566667 0.45 0.858333
0 0.228906 0.566667 0.457812 0.858333
0 0.228906 0.566667 0.457812 0.858333
0 0.228906 0.566667 0.457812 0.858333
0 0.228906 0.566667 0.457812 0.858333
0 0.232812 0.573958 0.465625 0.84375
0 0.232812 0.573958 0.465625 0.84375
0 0.232812 0.573958 0.465625 0.84375
0 0.232812 0.573958 0.465625 0.84375
0 0.232812 0.573958 0.465625 0.84375
0 0.232812 0.573958 0.465625 0.84375
0 0.24375 0.575 0.4875 0.833333
0 0.24375 0.575 0.4875 0.833333
0 0.24375 0.575 0.4875 0.833333
0 0.24375 0.575 0.4875 0.833333
0 0.24375 0.575 0.4875 0.833333
0 0.24375 0.575 0.4875 0.833333
0 0.248437 0.584375 0.496875 0.822917
0 0.248437 0.584375 0.496875 0.822917
0 0.248437 0.584375 0.496875 0.822917
0 0.248437 0.584375 0.496875 0.822917
0 0.248437 0.584375 0.496875 0.822917
0 0.248437 0.584375 0.496875 0.822917
0 0.253125 0.588542 0.5 0.822917
0 0.253125 0.588542 0.5 0.822917
0 0.253125 0.588542 0.5 0.822917
0 0.253125 0.588542 0.5 0.822917
0 0.253125 0.588542 0.5 0.822917
0 0.253125 0.588542 0.5 0.822917
0 0.251563 0.588542 0.5 0.814583
0 0.251563 0.588542 0.5 0.814583
0 0.251563 0.588542 0.5 0.814583
0 0.251563 0.588542 0.5 0.814583
0 0.251563 0.588542 0.5 0.814583
0 0.251563 0.588542 0.5 0.814583
0 0.252344 0.589583 0.501562 0.816667
0 0.252344 0.589583 0.501562 0.816667
0 0.252344 0.589583 0.501562 0.816667
0 0.252344 0.589583 0.501562 0.816667
0 0.252344 0.589583 0.501562 0.816667
0 0.252344 0.589583 0.501562 0.816667
0 0.252344 0.588542 0.498437 0.814583
0 0.252344 0.588542 0.498437 0.814583
0 0.252344 0.588542 0.498437 0.814583
0 0.252344 0.588542 0.498437 0.814583
0 0.252344 0.588542 0.498437 0.814583
0 0.252344 0.588542 0.498437 0.814583
0 0.253125 0.589583 0.5 0.816667
0 0.253125 0.589583 0.5 0.816667
0 0.253125 0.589583 0.5 0.816667
0 0.253125 0.589583 0.5 0.816667
0 0.253125 0.589583 0.5 0.816667
0 0.253125 0.589583 0.5 0.816667
0 0.252344 0.589583 0.501562 0.816667
0 0.252344 0.589583 0.501562 0.816667
0 0.252344 0.589583 0.501562 0.816667
0 0.252344 0.589583 0.501562 0.816667
0 0.252344 0.589583 0.501562 0.816667
0 0.252344 0.589583 0.501562 0.816667
0 0.252344 0.588542 0.501562 0.814583
0 0.252344 0.588542 0.501562 0.814583
0 0.252344 0.588542 0.501562 0.814583
0 0.252344 0.588542 0.501562 0.814583
0 0.252344 0.588542 0.501562 0.814583
0 0.252344 0.588542 0.501562 0.814583
0 0.246875 0.576042 0.49375 0.83125
0 0.246875 0.576042 0.49375 0.83125
0 0.246875 0.576042 0.49375 0.83125
0 0.246875 0.576042 0.49375 0.83125
0 0.246875 0.576042 0.49375 0.83125
0 0.246875 0.576042 0.49375 0.83125
0 0.24375 0.567708 0.4875 0.860417
0 0.24375 0.567708 0.4875 0.860417
0 0.24375 0.567708 0.4875 0.860417
0 0.24375 0.567708 0.4875 0.860417
0 0.24375 0.567708 0.4875 0.860417
0 0.247656 0.563542 0.495313 0.864583
0 0.247656 0.563542 0.495313 0.864583
0 0.247656 0.563542 0.495313 0.864583
0 0.247656 0.563542 0.495313 0.864583
0 0.247656 0.563542 0.495313 0.864583
0 0.247656 0.563542 0.495313 0.864583
0 0.234375 0.580208 0.46875 0.839583
0 0.234375 0.580208 0.46875 0.839583
0 0.234375 0.580208 0.46875 0.839583
0 0.234375 0.580208 0.46875 0.839583
0 0.234375 0.580208 0.46875 0.839583
0 0.234375 0.580208 0.46875 0.839583
0 0.240625 0.570833 0.48125 0.841667
0 0.240625 0.570833 0.48125 0.841667
0 0.240625 0.570833 0.48125 0.841667
0 0.240625 0.570833 0.48125 0.841667
0 0.240625 0.570833 0.48125 0.841667
0 0.240625 0.570833 0.48125 0.841667
24 0.279687 0.347917 0.071875 0.25
