0 0.5625 0.55625 0.875 0.879167
16 0.110156 0.875 0.220313 0.2
15 0.107031 0.871875 0.214062 0.197917
16 0.109375 0.872917 0.21875 0.2
0 0.560938 0.558333 0.878125 0.875
0 0.557813 0.560417 0.884375 0.879167
16 0.108594 0.875 0.217187 0.2
0 0.560938 0.557292 0.878125 0.877083
16 0.107813 0.875 0.215625 0.2
16 0.109375 0.873958 0.21875 0.197917
0 0.560938 0.557292 0.878125 0.877083
16 0.1125 0.872917 0.225 0.2
0 0.563281 0.559375 0.873438 0.88125
15 0.108594 0.875 0.214062 0.208333
0 0.608594 0.558333 0.782812 0.883333
16 0.110937 0.873958 0.221875 0.202083
16 0.1125 0.873958 0.225 0.202083
0 0.555469 0.557292 0.889063 0.885417
16 0.110937 0.875 0.221875 0.2
0 0.560938 0.559375 0.878125 0.877083
0 0.608594 0.558333 0.782812 0.883333
16 0.110937 0.875 0.221875 0.2
0 0.555469 0.55625 0.889063 0.879167
16 0.110937 0.871875 0.221875 0.197917
15 0.107031 0.873958 0.214062 0.20625
0 0.555469 0.557292 0.889063 0.88125
16 0.108594 0.873958 0.217187 0.202083
15 0.109375 0.872917 0.21875 0.204167
16 0.1125 0.872917 0.225 0.2
0 0.553906 0.55625 0.892187 0.879167
15 0.109375 0.872917 0.21875 0.2
16 0.111719 0.872917 0.223438 0.2
0 0.554688 0.55625 0.890625 0.8875
15 0.107813 0.872917 0.215625 0.204167
16 0.110156 0.871875 0.220313 0.197917
0 0.604688 0.557292 0.790625 0.885417
15 0.108594 0.872917 0.217187 0.2
16 0.110937 0.872917 0.221875 0.2
0 0.55 0.558333 0.9 0.883333
15 0.109375 0.875 0.21875 0.208333
0 0.553125 0.557292 0.89375 0.885417
16 0.109375 0.873958 0.21875 0.202083
15 0.109375 0.872917 0.21875 0.2
16 0.110937 0.872917 0.221875 0.2
0 0.551562 0.555208 0.896875 0.889583
15 0.110156 0.875 0.220313 0.208333
16 0.113281 0.873958 0.226562 0.202083
0 0.553906 0.55625 0.892187 0.883333
15 0.107031 0.873958 0.214062 0.202083
16 0.108594 0.873958 0.217187 0.197917
0 0.553906 0.557292 0.892187 0.885417
0 0.553125 0.558333 0.89375 0.883333
16 0.109375 0.873958 0.21875 0.197917
0 0.552344 0.558333 0.895312 0.883333
16 0.110937 0.875 0.221875 0.2
15 0.109375 0.873958 0.21875 0.202083
16 0.111719 0.873958 0.223438 0.202083
0 0.553125 0.558333 0.89375 0.883333
0 0.553125 0.55625 0.89375 0.879167
16 0.108594 0.872917 0.217187 0.2
15 0.109375 0.872917 0.21875 0.2
16 0.110937 0.872917 0.221875 0.2
0 0.609375 0.558333 0.78125 0.883333
15 0.107813 0.872917 0.215625 0.2
0 0.557813 0.558333 0.884375 0.883333
16 0.109375 0.871875 0.21875 0.197917
15 0.10625 0.873958 0.2125 0.202083
16 0.107813 0.873958 0.215625 0.197917
0 0.610937 0.557292 0.778125 0.885417
15 0.107813 0.871875 0.215625 0.202083
16 0.109375 0.872917 0.21875 0.2
0 0.6125 0.558333 0.775 0.883333
15 0.107813 0.871875 0.215625 0.197917
16 0.110156 0.873958 0.220313 0.197917
0 0.560938 0.557292 0.878125 0.877083
0 0.557813 0.558333 0.884375 0.883333
16 0.110937 0.871875 0.221875 0.197917
15 0.1125 0.873958 0.225 0.202083
16 0.114063 0.872917 0.228125 0.2
0 0.555469 0.558333 0.889063 0.883333
16 0.108594 0.875 0.217187 0.2
0 0.560938 0.558333 0.878125 0.883333
15 0.108594 0.875 0.217187 0.208333
16 0.111719 0.871875 0.223438 0.197917
0 0.608594 0.557292 0.782812 0.885417
0 0.558594 0.559375 0.882812 0.88125
16 0.107813 0.875 0.215625 0.2
15 0.110156 0.875 0.220313 0.208333
16 0.113281 0.875 0.226562 0.2
0 0.552344 0.558333 0.895312 0.875
15 0.10625 0.875 0.2125 0.208333
0 0.55625 0.560417 0.8875 0.879167
16 0.107813 0.873958 0.215625 0.202083
0 0.607031 0.558333 0.785937 0.883333
16 0.107813 0.871875 0.215625 0.197917
15 0.108594 0.875 0.217187 0.208333
16 0.109375 0.875 0.21875 0.2
0 0.607813 0.558333 0.784375 0.883333
0 0.607031 0.558333 0.785937 0.883333
16 0.107031 0.873958 0.214062 0.202083
16 0.109375 0.872917 0.21875 0.2
15 0.107031 0.873958 0.214062 0.20625
0 0.557813 0.559375 0.884375 0.88125
0 0.555469 0.557292 0.889063 0.877083
16 0.110156 0.872917 0.220313 0.2
16 0.109375 0.875 0.21875 0.2
0 0.608594 0.557292 0.782812 0.885417
15 0.102344 0.871875 0.204688 0.197917
0 0.60625 0.557292 0.7875 0.885417
16 0.103906 0.871875 0.207813 0.197917
15 0.107813 0.873958 0.2125 0.20625
16 0.110156 0.871875 0.220313 0.197917
0 0.60625 0.557292 0.7875 0.885417
15 0.107813 0.872917 0.215625 0.2
16 0.109375 0.873958 0.21875 0.197917
0 0.609375 0.558333 0.78125 0.883333
15 0.10625 0.873958 0.2125 0.20625
16 0.107031 0.872917 0.214062 0.2
0 0.607031 0.558333 0.785937 0.883333
15 0.107813 0.873958 0.215625 0.202083
0 0.607031 0.558333 0.785937 0.883333
16 0.109375 0.873958 0.21875 0.202083
0 0.555469 0.559375 0.889063 0.88125
16 0.108594 0.875 0.217187 0.2
15 0.107813 0.872917 0.215625 0.2
16 0.109375 0.872917 0.21875 0.2
0 0.607031 0.558333 0.785937 0.883333
0 0.609375 0.558333 0.78125 0.883333
16 0.1125 0.872917 0.225 0.2
16 0.108594 0.875 0.217187 0.2
0 0.555469 0.559375 0.889063 0.88125
15 0.107813 0.873958 0.215625 0.20625
16 0.107031 0.871875 0.214062 0.197917
0 0.557031 0.560417 0.885938 0.879167
16 0.113281 0.873958 0.226562 0.202083
0 0.611719 0.558333 0.776563 0.883333
16 0.115625 0.875 0.23125 0.2
0 0.609375 0.558333 0.78125 0.883333
16 0.1125 0.871875 0.225 0.197917
15 0.110937 0.871875 0.221875 0.197917
0 0.610156 0.559375 0.779688 0.88125
0 0.558594 0.559375 0.882812 0.88125
16 0.108594 0.873958 0.217187 0.202083
15 0.108594 0.872917 0.217187 0.204167
16 0.1125 0.872917 0.225 0.2
0 0.610937 0.558333 0.778125 0.883333
16 0.111719 0.872917 0.223438 0.2
0 0.610156 0.558333 0.779688 0.883333
15 0.107813 0.875 0.215625 0.208333
16 0.109375 0.873958 0.21875 0.202083
0 0.607813 0.558333 0.784375 0.883333
0 0.55625 0.559375 0.8875 0.88125
16 0.115625 0.875 0.23125 0.2
15 0.110156 0.873958 0.220313 0.202083
16 0.1125 0.875 0.225 0.2
0 0.608594 0.557292 0.782812 0.885417
15 0.107813 0.873958 0.215625 0.20625
16 0.111719 0.872917 0.223438 0.2
0 0.609375 0.558333 0.78125 0.883333
16 0.110156 0.873958 0.220313 0.202083
0 0.610156 0.558333 0.779688 0.883333
15 0.10625 0.873958 0.2125 0.202083
16 0.108594 0.875 0.217187 0.2
0 0.60625 0.558333 0.7875 0.883333
0 0.553125 0.558333 0.89375 0.883333
16 0.1125 0.875 0.225 0.2
15 0.107813 0.875 0.215625 0.208333
0 0.565625 0.560417 0.86875 0.879167
16 0.110156 0.875 0.220313 0.2
16 0.1125 0.873958 0.225 0.202083
0 0.607813 0.559375 0.784375 0.88125
16 0.114063 0.873958 0.228125 0.202083
0 0.607031 0.558333 0.785937 0.883333
16 0.110156 0.875 0.220313 0.2
0 0.607813 0.557292 0.784375 0.885417
15 0.108594 0.875 0.217187 0.208333
0 0.607813 0.559375 0.784375 0.88125
16 0.109375 0.873958 0.21875 0.202083
15 0.107031 0.873958 0.214062 0.20625
0 0.607813 0.558333 0.784375 0.883333
16 0.107813 0.875 0.215625 0.2
15 0.107031 0.873958 0.214062 0.20625
0 0.607813 0.558333 0.784375 0.883333
16 0.107813 0.875 0.215625 0.2
16 0.114844 0.875 0.229687 0.204167
0 0.607813 0.558333 0.784375 0.883333
16 0.108594 0.875 0.217187 0.2
0 0.607813 0.557292 0.784375 0.885417
15 0.107813 0.875 0.215625 0.208333
16 0.107031 0.875 0.214062 0.2
0 0.604688 0.558333 0.790625 0.883333
16 0.108594 0.875 0.217187 0.2
0 0.553125 0.558333 0.89375 0.879167
0 0.557031 0.560417 0.885938 0.879167
16 0.110156 0.873958 0.220313 0.202083
16 0.109375 0.872917 0.21875 0.2
0 0.601562 0.559375 0.796875 0.88125
15 0.105469 0.873958 0.210938 0.202083
16 0.107813 0.873958 0.215625 0.202083
0 0.603906 0.559375 0.792188 0.88125
0 0.55625 0.557292 0.8875 0.877083
16 0.10625 0.875 0.2125 0.2
16 0.108594 0.873958 0.217187 0.202083
0 0.601562 0.558333 0.796875 0.879167
15 0.1125 0.875 0.225 0.2
16 0.1125 0.875 0.225 0.2
0 0.602344 0.560417 0.795313 0.879167
15 0.10625 0.875 0.209375 0.208333
16 0.10625 0.875 0.2125 0.2
0 0.553125 0.558333 0.89375 0.875
16 0.107813 0.875 0.215625 0.2
15 0.107031 0.875 0.214062 0.2
0 0.554688 0.558333 0.890625 0.875
0 0.55625 0.557292 0.8875 0.872917
16 0.108594 0.871875 0.217187 0.197917
15 0.108594 0.873958 0.217187 0.202083
16 0.1125 0.875 0.225 0.2
0 0.553906 0.557292 0.892187 0.877083
15 0.107031 0.875 0.214062 0.2
16 0.108594 0.875 0.217187 0.2
0 0.603906 0.559375 0.792188 0.88125
15 0.110937 0.872917 0.221875 0.2
16 0.114063 0.872917 0.228125 0.2
0 0.553125 0.560417 0.89375 0.879167
0 0.551562 0.5625 0.896875 0.875
16 0.111719 0.871875 0.223438 0.197917
15 0.107031 0.873958 0.214062 0.20625
16 0.109375 0.872917 0.21875 0.2
0 0.563281 0.565625 0.873438 0.864583
67 0.689062 0.442708 0.046875 0.185417
16 0.109375 0.873958 0.21875 0.202083
0 0.5625 0.560417 0.875 0.870833
67 0.691406 0.444792 0.0546875 0.172917
15 0.10625 0.871875 0.2125 0.197917
16 0.107813 0.871875 0.215625 0.197917
0 0.565625 0.56875 0.86875 0.854167
15 0.107031 0.871875 0.214062 0.197917
67 0.684375 0.429167 0.05625 0.170833
16 0.107813 0.871875 0.215625 0.197917
0 0.565625 0.564583 0.86875 0.858333
15 0.107813 0.875 0.215625 0.208333
67 0.678906 0.429167 0.0515625 0.141667
16 0.110156 0.873958 0.220313 0.197917
0 0.6125 0.566667 0.775 0.866667
16 0.110156 0.875 0.220313 0.2
67 0.685938 0.423958 0.065625 0.160417
0 0.567969 0.5625 0.864062 0.866667
67 0.680469 0.428125 0.0640625 0.147917
0 0.565625 0.564583 0.86875 0.8625
16 0.1125 0.873958 0.225 0.202083
67 0.689062 0.458333 0.0625 0.216667
67 0.684375 0.413542 0.05625 0.114583
16 0.107031 0.873958 0.214062 0.202083
0 0.567969 0.56875 0.864062 0.8625
15 0.107813 0.875 0.215625 0.208333
67 0.6875 0.442708 0.059375 0.19375
16 0.108594 0.872917 0.217187 0.2
0 0.5625 0.5625 0.875 0.875
16 0.1125 0.875 0.225 0.2
0 0.557813 0.563542 0.884375 0.872917
16 0.111719 0.875 0.223438 0.2
0 0.566406 0.573958 0.867188 0.852083
15 0.108594 0.873958 0.217187 0.202083
16 0.110156 0.875 0.220313 0.2
0 0.567187 0.569792 0.865625 0.847917
15 0.107813 0.875 0.215625 0.2
16 0.109375 0.875 0.21875 0.2
0 0.56875 0.563542 0.85625 0.860417
15 0.107813 0.873958 0.215625 0.202083
16 0.109375 0.873958 0.21875 0.202083
0 0.571094 0.56875 0.857813 0.854167
16 0.108594 0.871875 0.217187 0.197917
0 0.565625 0.560417 0.86875 0.879167
15 0.107813 0.871875 0.215625 0.197917
16 0.110156 0.871875 0.220313 0.197917
0 0.575 0.564583 0.85 0.854167
16 0.107813 0.876042 0.215625 0.202083
0 0.572656 0.570833 0.854688 0.85
16 0.109375 0.875 0.21875 0.2
0 0.565625 0.560417 0.86875 0.870833
16 0.111719 0.875 0.223438 0.2
0 0.56875 0.55625 0.85625 0.8625
16 0.110937 0.873958 0.221875 0.202083
0 0.565625 0.564583 0.86875 0.866667
16 0.111719 0.873958 0.223438 0.202083
0 0.569531 0.565625 0.860937 0.86875
16 0.111719 0.873958 0.223438 0.202083
0 0.569531 0.565625 0.860937 0.86875
16 0.116406 0.873958 0.232812 0.202083
0 0.570312 0.564583 0.853125 0.866667
15 0.108594 0.875 0.217187 0.208333
16 0.1125 0.873958 0.225 0.202083
0 0.607813 0.552083 0.784375 0.875
16 0.115625 0.873958 0.23125 0.202083
0 0.561719 0.566667 0.876562 0.866667
16 0.114844 0.873958 0.229687 0.202083
0 0.560938 0.566667 0.878125 0.866667
16 0.109375 0.875 0.21875 0.2
0 0.554688 0.5625 0.890625 0.875
15 0.107031 0.875 0.214062 0.208333
16 0.109375 0.875 0.21875 0.2
0 0.564062 0.563542 0.871875 0.872917
15 0.107813 0.872917 0.215625 0.2
16 0.109375 0.871875 0.21875 0.197917
0 0.559375 0.565625 0.88125 0.86875
15 0.109375 0.873958 0.21875 0.197917
16 0.111719 0.873958 0.223438 0.197917
0 0.565625 0.560417 0.86875 0.879167
16 0.1125 0.875 0.225 0.2
0 0.565625 0.560417 0.86875 0.879167
16 0.109375 0.875 0.21875 0.2
15 0.107813 0.872917 0.215625 0.2
0 0.561719 0.560417 0.876562 0.879167
16 0.110937 0.875 0.221875 0.2
0 0.558594 0.561458 0.882812 0.877083
15 0.10625 0.873958 0.2125 0.202083
16 0.108594 0.873958 0.217187 0.202083
0 0.604688 0.558333 0.790625 0.875
15 0.111719 0.873958 0.223438 0.202083
16 0.115625 0.873958 0.23125 0.202083
0 0.573438 0.55625 0.853125 0.866667
16 0.108594 0.875 0.217187 0.2
0 0.578906 0.557292 0.842188 0.85625
16 0.114063 0.875 0.228125 0.2
0 0.576563 0.560417 0.846875 0.854167
15 0.107813 0.875 0.215625 0.2
16 0.110937 0.875 0.221875 0.2
0 0.576563 0.561458 0.846875 0.852083
16 0.109375 0.875 0.21875 0.2
0 0.578125 0.5625 0.84375 0.854167
16 0.110156 0.873958 0.220313 0.202083
0 0.576563 0.5625 0.846875 0.85
15 0.110156 0.875 0.220313 0.2
16 0.111719 0.875 0.223438 0.2
0 0.575 0.5625 0.85 0.8625
16 0.107031 0.875 0.214062 0.2
0 0.56875 0.559375 0.8625 0.86875
15 0.109375 0.873958 0.21875 0.202083
16 0.111719 0.875 0.223438 0.2
0 0.571875 0.5625 0.85625 0.866667
0 0.575 0.561458 0.85 0.864583
15 0.109375 0.873958 0.21875 0.202083
16 0.1125 0.873958 0.225 0.202083
0 0.571875 0.564583 0.85625 0.8625
15 0.110156 0.873958 0.220313 0.202083
16 0.1125 0.875 0.225 0.2
0 0.561719 0.561458 0.876562 0.864583
15 0.107813 0.875 0.215625 0.208333
16 0.109375 0.873958 0.21875 0.202083
0 0.607031 0.55625 0.785937 0.866667
16 0.110156 0.872917 0.220313 0.2
0 0.653125 0.554167 0.69375 0.866667
16 0.116406 0.875 0.232812 0.2
0 0.653125 0.552083 0.69375 0.883333
15 0.107031 0.873958 0.214062 0.202083
16 0.108594 0.875 0.217187 0.2
0 0.607031 0.558333 0.785937 0.879167
16 0.1125 0.875 0.225 0.2
15 0.110156 0.872917 0.220313 0.2
0 0.603125 0.554167 0.79375 0.883333
16 0.111719 0.875 0.223438 0.2
0 0.601562 0.552083 0.796875 0.8875
16 0.111719 0.875 0.223438 0.2
0 0.601562 0.552083 0.796875 0.8875
15 0.109375 0.873958 0.21875 0.202083
16 0.111719 0.875 0.223438 0.2
0 0.649219 0.534375 0.701563 0.93125
16 0.110156 0.876042 0.220313 0.202083
0 0.592969 0.541667 0.814062 0.916667
15 0.110937 0.873958 0.221875 0.202083
16 0.1125 0.873958 0.225 0.197917
0 0.589844 0.538542 0.820312 0.922917
15 0.107813 0.873958 0.215625 0.202083
0 0.602344 0.538542 0.795313 0.922917
16 0.1125 0.873958 0.225 0.202083
0 0.652344 0.540625 0.695312 0.914583
15 0.105469 0.873958 0.210938 0.202083
16 0.107813 0.875 0.215625 0.2
0 0.559375 0.547917 0.88125 0.879167
16 0.1125 0.873958 0.225 0.202083
0 0.657812 0.559375 0.684375 0.88125
16 0.114063 0.875 0.228125 0.2
0 0.570312 0.558333 0.859375 0.883333
15 0.104687 0.872917 0.209375 0.2
16 0.107031 0.875 0.214062 0.2
0 0.559375 0.560417 0.88125 0.879167
16 0.111719 0.876042 0.223438 0.202083
0 0.558594 0.555208 0.882812 0.872917
16 0.110937 0.875 0.221875 0.2
0 0.555469 0.554167 0.889063 0.866667
67 0.428906 0.810417 0.0734375 0.0833333
16 0.1125 0.877083 0.225 0.204167
0 0.549219 0.55 0.901563 0.866667
16 0.109375 0.876042 0.21875 0.202083
0 0.557031 0.553125 0.885938 0.86875
16 0.114063 0.876042 0.228125 0.202083
0 0.614062 0.560417 0.771875 0.879167
16 0.113281 0.876042 0.226562 0.202083
0 0.663281 0.55625 0.673437 0.875
16 0.113281 0.875 0.226562 0.204167
15 0.110156 0.873958 0.220313 0.202083
0 0.624219 0.552083 0.751562 0.870833
0 0.660937 0.554167 0.678125 0.870833
15 0.10625 0.873958 0.2125 0.202083
16 0.107813 0.875 0.215625 0.2
0 0.627344 0.557292 0.745313 0.877083
16 0.115625 0.877083 0.23125 0.204167
0 0.632031 0.554167 0.735937 0.879167
16 0.115625 0.873958 0.23125 0.202083
0 0.625781 0.555208 0.748438 0.88125
16 0.115625 0.876042 0.23125 0.20625
0 0.632812 0.555208 0.734375 0.877083
16 0.107813 0.873958 0.215625 0.202083
15 0.10625 0.873958 0.2125 0.202083
0 0.629687 0.555208 0.740625 0.877083
15 0.110937 0.875 0.221875 0.204167
16 0.113281 0.876042 0.226562 0.202083
0 0.663281 0.557292 0.673437 0.86875
16 0.1125 0.875 0.225 0.2
15 0.110937 0.875 0.221875 0.2
0 0.660937 0.558333 0.678125 0.866667
0 0.6625 0.558333 0.675 0.866667
16 0.107813 0.875 0.215625 0.2
15 0.10625 0.873958 0.2125 0.202083
0 0.616406 0.554167 0.767187 0.875
15 0.107813 0.875 0.215625 0.208333
16 0.109375 0.876042 0.21875 0.202083
0 0.616406 0.558333 0.767187 0.883333
15 0.110937 0.873958 0.221875 0.202083
16 0.111719 0.875 0.223438 0.2
0 0.657031 0.55625 0.685938 0.870833
16 0.114063 0.876042 0.228125 0.202083
0 0.560938 0.564583 0.878125 0.870833
15 0.109375 0.873958 0.21875 0.202083
16 0.110937 0.873958 0.221875 0.202083
0 0.6625 0.55625 0.675 0.866667
15 0.111719 0.873958 0.223438 0.202083
16 0.114063 0.875 0.228125 0.2
0 0.553125 0.55625 0.89375 0.8875
16 0.1125 0.875 0.225 0.2
0 0.557813 0.55625 0.884375 0.883333
16 0.114063 0.875 0.228125 0.2
0 0.617188 0.557292 0.765625 0.88125
16 0.114063 0.875 0.228125 0.2
0 0.617188 0.557292 0.765625 0.88125
16 0.11875 0.873958 0.2375 0.202083
0 0.623438 0.555208 0.753125 0.877083
16 0.110937 0.875 0.221875 0.2
0 0.617969 0.55625 0.764063 0.879167
15 0.110937 0.873958 0.221875 0.20625
16 0.114844 0.872917 0.229687 0.2
0 0.617188 0.555208 0.765625 0.877083
16 0.115625 0.873958 0.23125 0.202083
0 0.660937 0.557292 0.678125 0.86875
16 0.1125 0.875 0.225 0.2
0 0.658594 0.559375 0.682813 0.872917
16 0.110937 0.875 0.221875 0.2
0 0.660937 0.558333 0.678125 0.875
15 0.107813 0.872917 0.215625 0.2
16 0.110156 0.873958 0.220313 0.197917
0 0.615625 0.557292 0.76875 0.877083
16 0.115625 0.875 0.23125 0.2
0 0.614062 0.55625 0.771875 0.879167
16 0.115625 0.876042 0.23125 0.20625
0 0.623438 0.554167 0.753125 0.875
16 0.116406 0.876042 0.232812 0.202083
0 0.626562 0.555208 0.746875 0.88125
15 0.110937 0.875 0.221875 0.208333
16 0.114844 0.875 0.229687 0.2
0 0.625781 0.557292 0.748438 0.885417
16 0.117969 0.873958 0.235938 0.202083
0 0.621094 0.554167 0.757812 0.883333
0 0.6625 0.560417 0.675 0.870833
67 0.671094 0.448958 0.0953125 0.202083
0 0.622656 0.567708 0.754687 0.864583
67 0.713281 0.445833 0.0703125 0.175
67 0.457812 0.425 0.078125 0.0916667
0 0.623438 0.560417 0.74375 0.858333
67 0.460938 0.432292 0.090625 0.10625
67 0.707812 0.451042 0.065625 0.14375
0 0.626562 0.564583 0.740625 0.8625
67 0.4625 0.441667 0.08125 0.108333
16 0.109375 0.875 0.21875 0.2
0 0.622656 0.563542 0.748438 0.85625
16 0.113281 0.877083 0.226562 0.204167
0 0.61875 0.564583 0.75625 0.858333
0 0.592188 0.553125 0.815625 0.852083
0 0.625 0.55 0.75 0.883333
67 0.467969 0.41875 0.0640625 0.129167
0 0.592188 0.552083 0.815625 0.870833
0 0.607813 0.551042 0.784375 0.872917
79 0.641406 0.496875 0.239063 0.135417
0 0.607813 0.553125 0.740625 0.89375
0 0.585156 0.558333 0.704687 0.845833
15 0.1125 0.877083 0.225 0.204167
79 0.605469 0.479167 0.198437 0.0958333
0 0.58125 0.548958 0.75 0.860417
15 0.1125 0.877083 0.225 0.204167
79 0.605469 0.479167 0.198437 0.0958333
0 0.58125 0.548958 0.75 0.860417
44 0.608594 0.45625 0.201562 0.0708333
0 0.616406 0.560417 0.767187 0.854167
0 0.614844 0.565625 0.770312 0.852083
16 0.1125 0.877083 0.225 0.204167
67 0.470313 0.45625 0.071875 0.120833
0 0.617188 0.566667 0.765625 0.8625
67 0.471875 0.459375 0.075 0.127083
0 0.614844 0.565625 0.770312 0.864583
16 0.114844 0.877083 0.229687 0.204167
67 0.466406 0.45625 0.0828125 0.129167
67 0.703906 0.455208 0.0484375 0.14375
0 0.619531 0.563542 0.760938 0.85625
15 0.107813 0.875 0.215625 0.204167
0 0.653125 0.55625 0.69375 0.870833
0 0.613281 0.558333 0.773438 0.875
0 0.620313 0.558333 0.75625 0.883333
15 0.108594 0.873958 0.217187 0.202083
16 0.110937 0.876042 0.221875 0.202083
0 0.574219 0.558333 0.851562 0.883333
15 0.107813 0.875 0.215625 0.204167
0 0.575 0.560417 0.85 0.879167
0 0.665625 0.560417 0.66875 0.866667
0 0.667188 0.5625 0.665625 0.858333
15 0.107813 0.876042 0.215625 0.20625
0 0.661719 0.558333 0.676562 0.858333
0 0.6625 0.561458 0.675 0.864583
16 0.115625 0.877083 0.23125 0.204167
0 0.614844 0.5625 0.770312 0.854167
0 0.585938 0.569792 0.828125 0.847917
15 0.109375 0.875 0.21875 0.204167
0 0.545313 0.575 0.840625 0.85
15 0.107813 0.875 0.215625 0.204167
16 0.110156 0.876042 0.220313 0.202083
0 0.542969 0.575 0.845312 0.85
0 0.574219 0.56875 0.851562 0.858333
16 0.107813 0.876042 0.215625 0.20625
0 0.660937 0.565625 0.678125 0.852083
15 0.10625 0.876042 0.2125 0.20625
0 0.665625 0.5625 0.66875 0.8625
15 0.107813 0.878125 0.215625 0.20625
0 0.664062 0.564583 0.671875 0.8625
0 0.569531 0.564583 0.860937 0.870833
0 0.569531 0.564583 0.860937 0.870833
15 0.107031 0.877083 0.214062 0.204167
0 0.610937 0.557292 0.778125 0.860417
15 0.111719 0.875 0.223438 0.208333
16 0.116406 0.876042 0.232812 0.20625
0 0.663281 0.555208 0.673437 0.85625
16 0.109375 0.877083 0.21875 0.204167
15 0.107031 0.877083 0.214062 0.204167
0 0.666406 0.558333 0.667188 0.866667
52 0.623438 0.664583 0.190625 0.158333
0 0.664844 0.554167 0.670313 0.866667
0 0.664062 0.557292 0.671875 0.872917
16 0.107031 0.877083 0.214062 0.204167
15 0.10625 0.877083 0.2125 0.204167
0 0.607031 0.557292 0.785937 0.86875
0 0.665625 0.557292 0.66875 0.852083
0 0.575 0.565625 0.85 0.86875
0 0.615625 0.564583 0.76875 0.870833
0 0.573438 0.5625 0.853125 0.866667
67 0.614844 0.655208 0.170312 0.147917
0 0.613281 0.561458 0.773438 0.86875
15 0.108594 0.875 0.217187 0.204167
0 0.567969 0.563542 0.864062 0.872917
0 0.570312 0.564583 0.859375 0.870833
15 0.109375 0.875 0.21875 0.204167
0 0.6625 0.564583 0.675 0.8625
16 0.114063 0.877083 0.228125 0.204167
0 0.615625 0.560417 0.76875 0.870833
16 0.107813 0.877083 0.215625 0.204167
0 0.6125 0.5625 0.775 0.875
0 0.613281 0.561458 0.773438 0.872917
0 0.613281 0.561458 0.773438 0.877083
16 0.110156 0.877083 0.220313 0.204167
0 0.611719 0.560417 0.776563 0.870833
0 0.615625 0.560417 0.76875 0.870833
16 0.111719 0.875 0.223438 0.2
0 0.610937 0.560417 0.778125 0.870833
16 0.110156 0.876042 0.220313 0.202083
15 0.107813 0.873958 0.215625 0.202083
0 0.660937 0.563542 0.678125 0.872917
16 0.110156 0.876042 0.220313 0.202083
15 0.107813 0.873958 0.215625 0.202083
0 0.660937 0.563542 0.678125 0.872917
0 0.607813 0.561458 0.784375 0.86875
0 0.616406 0.561458 0.767187 0.872917
0 0.607813 0.5625 0.784375 0.866667
0 0.610937 0.560417 0.778125 0.866667
0 0.6125 0.561458 0.775 0.872917
0 0.574219 0.564583 0.851562 0.870833
0 0.658594 0.5625 0.682813 0.866667
0 0.613281 0.5625 0.770312 0.875
15 0.108594 0.876042 0.217187 0.20625
0 0.614062 0.5625 0.771875 0.875
0 0.660156 0.563542 0.679688 0.864583
0 0.613281 0.5625 0.773438 0.875
0 0.660937 0.5625 0.678125 0.866667
0 0.661719 0.5625 0.676562 0.866667
16 0.111719 0.877083 0.223438 0.204167
0 0.575 0.5625 0.85 0.875
15 0.110937 0.877083 0.221875 0.204167
0 0.6125 0.55625 0.7625 0.854167
16 0.117969 0.877083 0.235938 0.204167
0 0.610937 0.555208 0.771875 0.85625
0 0.608594 0.558333 0.782812 0.866667
16 0.108594 0.876042 0.217187 0.202083
0 0.603906 0.555208 0.792188 0.864583
52 0.622656 0.701042 0.195312 0.24375
0 0.674219 0.557292 0.651563 0.852083
0 0.607813 0.560417 0.784375 0.870833
0 0.657031 0.564583 0.685938 0.870833
52 0.5875 0.753125 0.196875 0.210417
48 0.5875 0.753125 0.196875 0.210417
0 0.565625 0.558333 0.86875 0.866667
52 0.580469 0.744792 0.192188 0.20625
48 0.579687 0.745833 0.190625 0.2125
0 0.569531 0.560417 0.860937 0.870833
52 0.58125 0.738542 0.184375 0.214583
0 0.610937 0.561458 0.778125 0.877083
52 0.58125 0.744792 0.196875 0.210417
0 0.571094 0.558333 0.857813 0.866667
52 0.58125 0.744792 0.196875 0.210417
0 0.571094 0.558333 0.857813 0.866667
52 0.58125 0.745833 0.196875 0.216667
0 0.574219 0.559375 0.851562 0.872917
52 0.582812 0.741667 0.196875 0.2
0 0.572656 0.558333 0.854688 0.866667
0 0.6125 0.5625 0.775 0.875
0 0.610937 0.5625 0.778125 0.866667
0 0.610156 0.558333 0.779688 0.883333
0 0.607031 0.560417 0.785937 0.879167
16 0.107813 0.876042 0.215625 0.202083
0 0.55625 0.561458 0.8875 0.877083
15 0.104687 0.873958 0.209375 0.202083
16 0.10625 0.875 0.2125 0.2
0 0.560938 0.560417 0.878125 0.879167
15 0.110937 0.873958 0.221875 0.202083
16 0.113281 0.875 0.226562 0.2
0 0.560156 0.561458 0.879687 0.877083
15 0.108594 0.873958 0.217187 0.202083
16 0.110156 0.875 0.220313 0.2
0 0.561719 0.5625 0.876562 0.870833
16 0.1125 0.875 0.225 0.2
0 0.599219 0.563542 0.801562 0.872917
15 0.10625 0.875 0.2125 0.2
16 0.107813 0.875 0.215625 0.2
0 0.603906 0.558333 0.792188 0.879167
0 0.559375 0.558333 0.88125 0.883333
0 0.558594 0.560417 0.882812 0.879167
0 0.560938 0.560417 0.878125 0.879167
0 0.560938 0.560417 0.878125 0.879167
16 0.114063 0.875 0.228125 0.2
15 0.111719 0.872917 0.223438 0.2
16 0.114063 0.875 0.228125 0.2
0 0.60625 0.558333 0.7875 0.875
16 0.116406 0.875 0.232812 0.2
0 0.552344 0.560417 0.895312 0.879167
15 0.110156 0.871875 0.220313 0.197917
16 0.111719 0.872917 0.223438 0.195833
0 0.557031 0.559375 0.885938 0.877083
16 0.1125 0.872917 0.225 0.2
15 0.110937 0.871875 0.221875 0.202083
0 0.55625 0.560417 0.8875 0.879167
15 0.110937 0.872917 0.221875 0.2
16 0.113281 0.875 0.226562 0.2
0 0.558594 0.560417 0.882812 0.879167
0 0.560156 0.560417 0.879687 0.879167
16 0.107813 0.872917 0.215625 0.2
15 0.10625 0.872917 0.2125 0.2
0 0.559375 0.557292 0.88125 0.877083
15 0.110937 0.875 0.221875 0.2
16 0.111719 0.875 0.223438 0.2
0 0.555469 0.559375 0.889063 0.877083
16 0.115625 0.873958 0.23125 0.202083
0 0.55625 0.559375 0.8875 0.88125
16 0.113281 0.875 0.226562 0.2
0 0.563281 0.559375 0.873438 0.88125
15 0.107031 0.871875 0.214062 0.197917
16 0.109375 0.872917 0.21875 0.195833
0 0.553125 0.560417 0.89375 0.879167
16 0.114844 0.875 0.229687 0.2
0 0.557813 0.559375 0.884375 0.88125
16 0.1125 0.875 0.225 0.2
0 0.55625 0.560417 0.8875 0.879167
15 0.110156 0.872917 0.220313 0.2
16 0.111719 0.872917 0.223438 0.2
0 0.559375 0.560417 0.88125 0.879167
16 0.115625 0.875 0.23125 0.2
0 0.560156 0.560417 0.879687 0.879167
16 0.114063 0.876042 0.228125 0.202083
0 0.55625 0.561458 0.8875 0.877083
15 0.108594 0.873958 0.217187 0.202083
16 0.111719 0.875 0.223438 0.2
0 0.557813 0.560417 0.884375 0.879167
16 0.114063 0.873958 0.228125 0.202083
0 0.559375 0.560417 0.88125 0.879167
16 0.114063 0.873958 0.228125 0.202083
0 0.559375 0.560417 0.88125 0.879167
