8 0.829687 0.404167 0.034375 0.025
8 0.901563 0.434375 0.059375 0.05625
0 0.307813 0.879167 0.034375 0.0833333
0 0.129688 0.804167 0.021875 0.1
8 0.828906 0.403125 0.0359375 0.0270833
8 0.901563 0.433333 0.059375 0.0583333
0 0.308594 0.877083 0.0328125 0.0833333
0 0.0789063 0.534375 0.0140625 0.0229167
0 0.128906 0.804167 0.0203125 0.1
8 0.829687 0.403125 0.0375 0.0270833
8 0.901563 0.436458 0.059375 0.05625
0 0.232812 0.821875 0.03125 0.0604167
0 0.128906 0.803125 0.0203125 0.09375
8 0.917188 0.6125 0.040625 0.1
8 0.828125 0.403125 0.0375 0.0270833
8 0.900781 0.4375 0.0578125 0.0583333
0 0.232812 0.821875 0.03125 0.0604167
0 0.128906 0.803125 0.0203125 0.09375
8 0.917188 0.6125 0.040625 0.1
8 0.828125 0.403125 0.0375 0.0270833
8 0.900781 0.4375 0.0578125 0.0583333
0 0.309375 0.878125 0.0375 0.0854167
0 0.232812 0.821875 0.03125 0.0604167
0 0.128906 0.803125 0.0203125 0.09375
9 0.155469 0.441667 0.0078125 0.0166667
9 0.232031 0.454167 0.0140625 0.025
8 0.828125 0.402083 0.034375 0.0291667
8 0.917969 0.596875 0.0421875 0.06875
8 0.900781 0.4375 0.0578125 0.0583333
0 0.309375 0.878125 0.0375 0.0854167
0 0.232812 0.821875 0.03125 0.0604167
0 0.128906 0.803125 0.0203125 0.09375
9 0.155469 0.441667 0.0078125 0.0166667
9 0.232031 0.454167 0.0140625 0.025
8 0.828125 0.402083 0.034375 0.0291667
8 0.917969 0.596875 0.0421875 0.06875
8 0.900781 0.4375 0.0578125 0.0583333
0 0.232812 0.821875 0.03125 0.0604167
0 0.129688 0.803125 0.021875 0.0979167
9 0.230469 0.452083 0.0109375 0.0208333
8 0.917969 0.604167 0.0421875 0.0875
8 0.828125 0.402083 0.0375 0.0291667
8 0.9 0.4375 0.05625 0.0583333
0 0.232812 0.821875 0.03125 0.0604167
0 0.129688 0.803125 0.021875 0.0979167
9 0.230469 0.452083 0.0109375 0.0208333
8 0.917969 0.604167 0.0421875 0.0875
8 0.828125 0.402083 0.0375 0.0291667
8 0.9 0.4375 0.05625 0.0583333
8 0.192188 0.83125 0.378125 0.3375
0 0.657812 0.488542 0.009375 0.0229167
0 0.128906 0.803125 0.0203125 0.0979167
8 0.828906 0.402083 0.0359375 0.0291667
8 0.901563 0.4375 0.059375 0.0583333
8 0.192188 0.83125 0.378125 0.3375
0 0.657812 0.488542 0.009375 0.0229167
0 0.128906 0.803125 0.0203125 0.0979167
8 0.828906 0.402083 0.0359375 0.0291667
8 0.901563 0.4375 0.059375 0.0583333
0 0.230469 0.822917 0.0296875 0.0625
0 0.307813 0.876042 0.034375 0.08125
0 0.128906 0.803125 0.0234375 0.0979167
8 0.825 0.404167 0.03125 0.025
8 0.901563 0.438542 0.059375 0.05625
0 0.230469 0.822917 0.0296875 0.0625
0 0.307813 0.876042 0.034375 0.08125
0 0.128906 0.803125 0.0234375 0.0979167
8 0.825 0.404167 0.03125 0.025
8 0.901563 0.438542 0.059375 0.05625
0 0.0796875 0.536458 0.015625 0.03125
0 0.232031 0.822917 0.0328125 0.0625
0 0.307813 0.872917 0.034375 0.0791667
0 0.128906 0.803125 0.0234375 0.0979167
9 0.23125 0.454167 0.0125 0.025
8 0.825 0.404167 0.03125 0.025
8 0.901563 0.4375 0.059375 0.0583333
0 0.0796875 0.536458 0.015625 0.03125
0 0.232031 0.822917 0.0328125 0.0625
0 0.307813 0.872917 0.034375 0.0791667
0 0.128906 0.803125 0.0234375 0.0979167
9 0.23125 0.454167 0.0125 0.025
8 0.825 0.404167 0.03125 0.025
8 0.901563 0.4375 0.059375 0.0583333
0 0.307031 0.873958 0.0328125 0.0770833
0 0.232031 0.822917 0.0328125 0.0625
0 0.128906 0.804167 0.0234375 0.0958333
8 0.917188 0.601042 0.040625 0.0770833
9 0.154687 0.442708 0.009375 0.0145833
9 0.23125 0.453125 0.0125 0.0229167
8 0.825781 0.404167 0.0296875 0.025
8 0.900781 0.4375 0.0578125 0.0583333
0 0.307031 0.873958 0.0328125 0.0770833
0 0.232031 0.822917 0.0328125 0.0625
0 0.128906 0.804167 0.0234375 0.0958333
8 0.917188 0.601042 0.040625 0.0770833
9 0.154687 0.442708 0.009375 0.0145833
9 0.23125 0.453125 0.0125 0.0229167
8 0.825781 0.404167 0.0296875 0.025
8 0.900781 0.4375 0.0578125 0.0583333
0 0.657812 0.489583 0.009375 0.0208333
0 0.0796875 0.536458 0.0125 0.0229167
0 0.307813 0.873958 0.034375 0.0770833
0 0.232031 0.822917 0.0328125 0.0625
0 0.128906 0.804167 0.0234375 0.0958333
8 0.917188 0.604167 0.040625 0.0916667
9 0.230469 0.452083 0.0109375 0.0208333
8 0.826563 0.403125 0.03125 0.0270833
8 0.901563 0.434375 0.059375 0.0604167
0 0.657812 0.489583 0.009375 0.0208333
0 0.0796875 0.536458 0.0125 0.0229167
0 0.307813 0.873958 0.034375 0.0770833
0 0.232031 0.822917 0.0328125 0.0625
0 0.128906 0.804167 0.0234375 0.0958333
8 0.917188 0.604167 0.040625 0.0916667
9 0.230469 0.452083 0.0109375 0.0208333
8 0.826563 0.403125 0.03125 0.0270833
8 0.901563 0.434375 0.059375 0.0604167
0 0.232031 0.820833 0.0328125 0.0625
0 0.307813 0.876042 0.034375 0.08125
0 0.129688 0.804167 0.025 0.1
8 0.917969 0.607292 0.0421875 0.0979167
8 0.826563 0.403125 0.034375 0.0270833
8 0.901563 0.433333 0.059375 0.0583333
0 0.232031 0.820833 0.0328125 0.0625
0 0.307031 0.876042 0.0328125 0.08125
0 0.128906 0.804167 0.0234375 0.0958333
8 0.917188 0.610417 0.04375 0.0958333
8 0.825781 0.404167 0.0296875 0.025
8 0.901563 0.4375 0.059375 0.0583333
0 0.232031 0.820833 0.0328125 0.0625
0 0.307031 0.876042 0.0328125 0.08125
0 0.128906 0.804167 0.0234375 0.0958333
8 0.917188 0.610417 0.04375 0.0958333
8 0.825781 0.404167 0.0296875 0.025
8 0.901563 0.4375 0.059375 0.0583333
0 0.307031 0.875 0.0328125 0.0833333
0 0.657031 0.488542 0.0078125 0.0229167
0 0.232031 0.820833 0.0296875 0.0625
0 0.128906 0.804167 0.0234375 0.0958333
9 0.23125 0.453125 0.0125 0.0229167
8 0.825781 0.403125 0.0328125 0.0270833
8 0.900781 0.438542 0.0578125 0.05625
0 0.307031 0.875 0.0328125 0.0833333
0 0.657031 0.488542 0.0078125 0.0229167
0 0.232031 0.820833 0.0296875 0.0625
0 0.128906 0.804167 0.0234375 0.0958333
9 0.23125 0.453125 0.0125 0.0229167
8 0.825781 0.403125 0.0328125 0.0270833
8 0.900781 0.438542 0.0578125 0.05625
0 0.30625 0.871875 0.03125 0.08125
0 0.232031 0.819792 0.0296875 0.0604167
0 0.128906 0.804167 0.0234375 0.0958333
9 0.154687 0.441667 0.009375 0.0166667
9 0.23125 0.454167 0.0125 0.025
8 0.826563 0.403125 0.034375 0.0270833
8 0.901563 0.4375 0.059375 0.0583333
0 0.30625 0.871875 0.03125 0.08125
0 0.232031 0.819792 0.0296875 0.0604167
0 0.128906 0.804167 0.0234375 0.0958333
9 0.154687 0.441667 0.009375 0.0166667
9 0.23125 0.454167 0.0125 0.025
8 0.826563 0.403125 0.034375 0.0270833
8 0.901563 0.4375 0.059375 0.0583333
0 0.308594 0.877083 0.0328125 0.0833333
0 0.128125 0.804167 0.021875 0.1
10 0.917188 0.6125 0.040625 0.104167
8 0.826563 0.403125 0.03125 0.0270833
8 0.901563 0.432292 0.059375 0.05625
0 0.308594 0.877083 0.0328125 0.0833333
0 0.128125 0.804167 0.021875 0.1
10 0.917188 0.6125 0.040625 0.104167
8 0.826563 0.403125 0.03125 0.0270833
8 0.901563 0.432292 0.059375 0.05625
0 0.307031 0.875 0.0328125 0.0833333
0 0.128906 0.804167 0.0234375 0.1
8 0.917188 0.607292 0.040625 0.09375
8 0.828125 0.402083 0.034375 0.0291667
8 0.901563 0.432292 0.059375 0.05625
0 0.307031 0.875 0.0328125 0.0833333
0 0.128906 0.804167 0.0234375 0.1
8 0.917188 0.607292 0.040625 0.09375
8 0.828125 0.402083 0.034375 0.0291667
8 0.901563 0.432292 0.059375 0.05625
0 0.0804688 0.534375 0.0109375 0.0229167
0 0.308594 0.878125 0.0328125 0.0854167
0 0.128906 0.804167 0.0234375 0.1
8 0.826563 0.403125 0.03125 0.0270833
8 0.901563 0.434375 0.059375 0.05625
0 0.0804688 0.534375 0.0109375 0.0229167
0 0.308594 0.878125 0.0328125 0.0854167
0 0.128906 0.804167 0.0234375 0.1
8 0.826563 0.403125 0.03125 0.0270833
8 0.901563 0.434375 0.059375 0.05625
0 0.307813 0.872917 0.03125 0.0791667
0 0.0804688 0.535417 0.0109375 0.025
0 0.128125 0.805208 0.021875 0.0979167
8 0.825 0.404167 0.03125 0.025
8 0.901563 0.4375 0.059375 0.0541667
0 0.307813 0.872917 0.03125 0.0791667
0 0.0804688 0.535417 0.0109375 0.025
0 0.128125 0.805208 0.021875 0.0979167
8 0.825 0.404167 0.03125 0.025
8 0.901563 0.4375 0.059375 0.0541667
0 0.30625 0.870833 0.03125 0.075
0 0.129688 0.804167 0.021875 0.1
8 0.917188 0.610417 0.040625 0.0958333
9 0.23125 0.453125 0.0125 0.0229167
8 0.828125 0.403125 0.0375 0.0270833
8 0.901563 0.4375 0.05625 0.0541667
0 0.30625 0.870833 0.03125 0.075
0 0.129688 0.804167 0.021875 0.1
8 0.917188 0.610417 0.040625 0.0958333
9 0.23125 0.453125 0.0125 0.0229167
8 0.828125 0.403125 0.0375 0.0270833
8 0.901563 0.4375 0.05625 0.0541667
0 0.30625 0.870833 0.03125 0.075
0 0.128906 0.804167 0.0234375 0.1
9 0.23125 0.452083 0.0125 0.0208333
8 0.825 0.403125 0.03125 0.0270833
8 0.9 0.435417 0.05625 0.0541667
0 0.30625 0.870833 0.03125 0.075
0 0.128906 0.804167 0.0234375 0.1
9 0.23125 0.452083 0.0125 0.0208333
8 0.825 0.403125 0.03125 0.0270833
8 0.9 0.435417 0.05625 0.0541667
0 0.129688 0.804167 0.025 0.104167
9 0.23125 0.452083 0.0125 0.0208333
8 0.828125 0.402083 0.0375 0.0291667
8 0.901563 0.432292 0.059375 0.0520833
0 0.129688 0.804167 0.025 0.104167
9 0.23125 0.452083 0.0125 0.0208333
8 0.828125 0.402083 0.0375 0.0291667
8 0.901563 0.432292 0.059375 0.0520833
0 0.657812 0.488542 0.009375 0.0229167
0 0.128906 0.805208 0.0203125 0.0979167
9 0.154687 0.441667 0.009375 0.0166667
8 0.917188 0.597917 0.040625 0.0708333
8 0.826563 0.402083 0.034375 0.0291667
8 0.901563 0.433333 0.059375 0.0541667
0 0.657812 0.488542 0.009375 0.0229167
0 0.128906 0.805208 0.0203125 0.0979167
9 0.154687 0.441667 0.009375 0.0166667
8 0.917188 0.597917 0.040625 0.0708333
8 0.826563 0.402083 0.034375 0.0291667
8 0.901563 0.433333 0.059375 0.0541667
0 0.232812 0.820833 0.03125 0.0583333
0 0.307813 0.878125 0.034375 0.0854167
0 0.128906 0.804167 0.0203125 0.0916667
8 0.917188 0.609375 0.040625 0.09375
8 0.828125 0.403125 0.034375 0.0270833
8 0.903125 0.434375 0.05625 0.0520833
0 0.232812 0.820833 0.03125 0.0583333
0 0.307813 0.878125 0.034375 0.0854167
0 0.128906 0.804167 0.0203125 0.0916667
8 0.917188 0.609375 0.040625 0.09375
8 0.828125 0.403125 0.034375 0.0270833
8 0.903125 0.434375 0.05625 0.0520833
0 0.657031 0.488542 0.0078125 0.0229167
0 0.307031 0.877083 0.0328125 0.0875
0 0.232031 0.820833 0.0296875 0.0583333
0 0.0804688 0.538542 0.0140625 0.03125
0 0.129688 0.805208 0.021875 0.09375
9 0.154687 0.442708 0.009375 0.01875
8 0.828125 0.403125 0.0375 0.0270833
8 0.901563 0.436458 0.059375 0.05625
0 0.657031 0.488542 0.0078125 0.0229167
0 0.307031 0.877083 0.0328125 0.0875
0 0.232031 0.820833 0.0296875 0.0583333
0 0.0804688 0.538542 0.0140625 0.03125
0 0.129688 0.805208 0.021875 0.09375
9 0.154687 0.442708 0.009375 0.01875
8 0.828125 0.403125 0.0375 0.0270833
8 0.901563 0.436458 0.059375 0.05625
0 0.657031 0.488542 0.0078125 0.0229167
0 0.232812 0.820833 0.03125 0.0583333
0 0.307031 0.875 0.0328125 0.0833333
0 0.129688 0.804167 0.021875 0.0958333
9 0.154687 0.441667 0.009375 0.0166667
9 0.23125 0.454167 0.0125 0.0208333
8 0.826563 0.403125 0.03125 0.0270833
8 0.9 0.436458 0.05625 0.05625
0 0.657031 0.488542 0.0078125 0.0229167
0 0.232812 0.820833 0.03125 0.0583333
0 0.307031 0.875 0.0328125 0.0833333
0 0.129688 0.804167 0.021875 0.0958333
9 0.154687 0.441667 0.009375 0.0166667
9 0.23125 0.454167 0.0125 0.0208333
8 0.826563 0.403125 0.03125 0.0270833
8 0.9 0.436458 0.05625 0.05625
0 0.0804688 0.536458 0.0140625 0.0270833
0 0.657031 0.489583 0.0078125 0.025
0 0.232812 0.820833 0.03125 0.0583333
0 0.307031 0.877083 0.0328125 0.0833333
0 0.128906 0.803125 0.0203125 0.09375
9 0.23125 0.452083 0.0125 0.0208333
8 0.828125 0.402083 0.034375 0.0291667
8 0.901563 0.434375 0.059375 0.0604167
0 0.30625 0.875 0.03125 0.0791667
0 0.0796875 0.535417 0.0125 0.0208333
0 0.129688 0.805208 0.021875 0.0979167
8 0.917188 0.610417 0.040625 0.0958333
8 0.828125 0.402083 0.034375 0.0291667
8 0.901563 0.436458 0.05625 0.05625
0 0.30625 0.875 0.03125 0.0791667
0 0.0796875 0.535417 0.0125 0.0208333
0 0.129688 0.805208 0.021875 0.0979167
8 0.917188 0.610417 0.040625 0.0958333
8 0.828125 0.402083 0.034375 0.0291667
8 0.901563 0.436458 0.05625 0.05625
0 0.30625 0.871875 0.03125 0.08125
0 0.0796875 0.536458 0.0125 0.0229167
0 0.128906 0.804167 0.0203125 0.0958333
8 0.826563 0.404167 0.03125 0.025
8 0.901563 0.4375 0.05625 0.0541667
0 0.30625 0.871875 0.03125 0.08125
0 0.0796875 0.536458 0.0125 0.0229167
0 0.128906 0.804167 0.0203125 0.0958333
8 0.826563 0.404167 0.03125 0.025
8 0.901563 0.4375 0.05625 0.0541667
0 0.0796875 0.5375 0.015625 0.025
0 0.128906 0.805208 0.0203125 0.0979167
8 0.842188 0.404167 0.015625 0.025
9 0.23125 0.453125 0.0125 0.0229167
8 0.917188 0.6 0.040625 0.075
8 0.827344 0.404167 0.0328125 0.025
8 0.901563 0.4375 0.059375 0.0541667
0 0.0796875 0.5375 0.015625 0.025
0 0.128906 0.805208 0.0203125 0.0979167
8 0.842188 0.404167 0.015625 0.025
9 0.23125 0.453125 0.0125 0.0229167
8 0.917188 0.6 0.040625 0.075
8 0.827344 0.404167 0.0328125 0.025
8 0.901563 0.4375 0.059375 0.0541667
0 0.0804688 0.5375 0.0140625 0.025
0 0.128906 0.805208 0.0203125 0.0979167
9 0.232031 0.453125 0.0140625 0.0229167
8 0.826563 0.404167 0.034375 0.025
8 0.901563 0.4375 0.059375 0.0583333
0 0.0804688 0.5375 0.0140625 0.025
0 0.128906 0.805208 0.0203125 0.0979167
9 0.232031 0.453125 0.0140625 0.0229167
8 0.826563 0.404167 0.034375 0.025
8 0.901563 0.4375 0.059375 0.0583333
0 0.307813 0.869792 0.028125 0.0770833
0 0.0796875 0.538542 0.0125 0.0270833
0 0.128906 0.804167 0.0234375 0.1
8 0.917188 0.607292 0.040625 0.0979167
8 0.828125 0.402083 0.034375 0.0291667
8 0.901563 0.433333 0.059375 0.0583333
0 0.307813 0.869792 0.028125 0.0770833
0 0.0796875 0.538542 0.0125 0.0270833
0 0.128906 0.804167 0.0234375 0.1
8 0.917188 0.607292 0.040625 0.0979167
8 0.828125 0.402083 0.034375 0.0291667
8 0.901563 0.433333 0.059375 0.0583333
0 0.308594 0.871875 0.0296875 0.0770833
0 0.0796875 0.538542 0.0125 0.0270833
0 0.128906 0.804167 0.0234375 0.1
8 0.828906 0.402083 0.0359375 0.0291667
8 0.901563 0.434375 0.059375 0.0604167
0 0.308594 0.871875 0.0296875 0.0770833
0 0.0796875 0.538542 0.0125 0.0270833
0 0.128906 0.804167 0.0234375 0.1
8 0.828906 0.402083 0.0359375 0.0291667
8 0.901563 0.434375 0.059375 0.0604167
0 0.307813 0.871875 0.03125 0.0770833
0 0.0804688 0.536458 0.0109375 0.0229167
0 0.128906 0.805208 0.0234375 0.0979167
8 0.917969 0.608333 0.0421875 0.0958333
8 0.828125 0.403125 0.0375 0.0270833
8 0.901563 0.435417 0.059375 0.0583333
0 0.307813 0.871875 0.03125 0.0770833
0 0.0804688 0.536458 0.0109375 0.0229167
0 0.128906 0.805208 0.0234375 0.0979167
8 0.917969 0.608333 0.0421875 0.0958333
8 0.828125 0.403125 0.0375 0.0270833
8 0.901563 0.435417 0.059375 0.0583333
0 0.30625 0.869792 0.03125 0.0770833
0 0.657031 0.488542 0.0078125 0.0229167
0 0.0796875 0.538542 0.0125 0.0270833
0 0.128906 0.804167 0.0234375 0.1
8 0.917188 0.60625 0.040625 0.0916667
8 0.828906 0.404167 0.0359375 0.025
8 0.9 0.436458 0.05625 0.05625
0 0.30625 0.869792 0.03125 0.0770833
0 0.657031 0.488542 0.0078125 0.0229167
0 0.0796875 0.538542 0.0125 0.0270833
0 0.128906 0.804167 0.0234375 0.1
8 0.917188 0.60625 0.040625 0.0916667
8 0.828906 0.404167 0.0359375 0.025
8 0.9 0.436458 0.05625 0.05625
0 0.307813 0.875 0.034375 0.0833333
0 0.0796875 0.536458 0.0125 0.0270833
0 0.128125 0.805208 0.021875 0.0979167
8 0.829687 0.404167 0.0375 0.025
8 0.901563 0.438542 0.059375 0.05625
0 0.0796875 0.536458 0.015625 0.0270833
0 0.128125 0.804167 0.021875 0.0958333
8 0.829687 0.404167 0.0375 0.025
8 0.901563 0.438542 0.059375 0.05625
0 0.0796875 0.536458 0.015625 0.0270833
0 0.128125 0.804167 0.021875 0.0958333
9 0.23125 0.452083 0.0125 0.0208333
8 0.91875 0.60625 0.04375 0.0958333
8 0.828906 0.403125 0.0359375 0.0270833
8 0.901563 0.438542 0.059375 0.0604167
0 0.657031 0.488542 0.0078125 0.0270833
0 0.0789063 0.538542 0.0140625 0.0270833
0 0.128906 0.804167 0.0234375 0.0958333
8 0.91875 0.594792 0.04375 0.06875
8 0.829687 0.402083 0.0375 0.0291667
8 0.902344 0.434375 0.0578125 0.0604167
0 0.657031 0.488542 0.0078125 0.0270833
0 0.0789063 0.538542 0.0140625 0.0270833
0 0.128906 0.804167 0.0234375 0.0958333
8 0.91875 0.594792 0.04375 0.06875
8 0.829687 0.402083 0.0375 0.0291667
8 0.902344 0.434375 0.0578125 0.0604167
0 0.30625 0.869792 0.03125 0.0729167
0 0.0789063 0.538542 0.0140625 0.0270833
0 0.129688 0.804167 0.021875 0.0958333
9 0.232031 0.452083 0.0140625 0.0208333
8 0.829687 0.402083 0.040625 0.0291667
8 0.902344 0.435417 0.0578125 0.0583333
0 0.30625 0.869792 0.03125 0.0729167
0 0.0789063 0.538542 0.0140625 0.0270833
0 0.129688 0.804167 0.021875 0.0958333
9 0.232031 0.452083 0.0140625 0.0208333
8 0.829687 0.402083 0.040625 0.0291667
8 0.902344 0.435417 0.0578125 0.0583333
0 0.309375 0.878125 0.034375 0.0854167
0 0.128906 0.805208 0.0265625 0.102083
8 0.917969 0.608333 0.0453125 0.0916667
8 0.829687 0.403125 0.0375 0.0270833
8 0.901563 0.436458 0.05625 0.05625
0 0.309375 0.878125 0.034375 0.0854167
0 0.128906 0.805208 0.0265625 0.102083
8 0.917969 0.608333 0.0453125 0.0916667
8 0.829687 0.403125 0.0375 0.0270833
8 0.901563 0.436458 0.05625 0.05625
0 0.308594 0.876042 0.0328125 0.0854167
0 0.128906 0.805208 0.0265625 0.0979167
8 0.829687 0.403125 0.034375 0.0270833
8 0.901563 0.435417 0.05625 0.0541667
0 0.308594 0.876042 0.0328125 0.0854167
0 0.128906 0.805208 0.0265625 0.0979167
8 0.829687 0.403125 0.034375 0.0270833
8 0.901563 0.435417 0.05625 0.0541667
0 0.0796875 0.536458 0.0125 0.0270833
0 0.308594 0.878125 0.0328125 0.0854167
0 0.128906 0.805208 0.0265625 0.102083
8 0.91875 0.602083 0.04375 0.0833333
8 0.828125 0.403125 0.0375 0.0270833
8 0.903125 0.434375 0.05625 0.05625
0 0.0796875 0.536458 0.0125 0.0270833
0 0.308594 0.878125 0.0328125 0.0854167
0 0.128906 0.805208 0.0265625 0.102083
8 0.91875 0.602083 0.04375 0.0833333
8 0.828125 0.403125 0.0375 0.0270833
8 0.903125 0.434375 0.05625 0.05625
0 0.0796875 0.5375 0.0125 0.025
8 0.210156 0.846875 0.314063 0.29375
0 0.307813 0.877083 0.034375 0.0875
0 0.128906 0.805208 0.0265625 0.102083
8 0.917969 0.60625 0.0421875 0.0916667
8 0.829687 0.402083 0.0375 0.0291667
8 0.903125 0.435417 0.05625 0.0625
0 0.0796875 0.5375 0.0125 0.025
8 0.210156 0.846875 0.314063 0.29375
0 0.307813 0.877083 0.034375 0.0875
0 0.128906 0.805208 0.0265625 0.102083
8 0.917969 0.60625 0.0421875 0.0916667
8 0.829687 0.402083 0.0375 0.0291667
8 0.903125 0.435417 0.05625 0.0625
0 0.307813 0.872917 0.03125 0.0791667
8 0.0429688 0.832292 0.0859375 0.322917
0 0.0796875 0.540625 0.0125 0.0270833
0 0.128906 0.807292 0.0234375 0.0979167
8 0.91875 0.611458 0.04375 0.102083
8 0.83125 0.402083 0.0375 0.0291667
8 0.902344 0.436458 0.0578125 0.0645833
0 0.307813 0.872917 0.03125 0.0791667
8 0.0429688 0.832292 0.0859375 0.322917
0 0.0796875 0.540625 0.0125 0.0270833
0 0.128906 0.807292 0.0234375 0.0979167
8 0.91875 0.611458 0.04375 0.102083
8 0.83125 0.402083 0.0375 0.0291667
8 0.902344 0.436458 0.0578125 0.0645833
0 0.307813 0.875 0.034375 0.0833333
8 0.0429688 0.832292 0.0859375 0.322917
0 0.0789063 0.540625 0.0140625 0.03125
0 0.129688 0.807292 0.025 0.0979167
8 0.917188 0.609375 0.040625 0.102083
8 0.830469 0.402083 0.0390625 0.0291667
8 0.901563 0.4375 0.05625 0.0583333
0 0.307813 0.875 0.034375 0.0833333
8 0.0429688 0.832292 0.0859375 0.322917
0 0.0789063 0.540625 0.0140625 0.03125
0 0.129688 0.807292 0.025 0.0979167
8 0.917188 0.609375 0.040625 0.102083
8 0.830469 0.402083 0.0390625 0.0291667
8 0.901563 0.4375 0.05625 0.0583333
0 0.308594 0.875 0.0328125 0.0833333
8 0.0429688 0.832292 0.0859375 0.322917
0 0.0789063 0.539583 0.0140625 0.0291667
0 0.129688 0.805208 0.025 0.0979167
8 0.829687 0.404167 0.0375 0.025
8 0.901563 0.439583 0.05625 0.0625
0 0.308594 0.875 0.0328125 0.0833333
8 0.0429688 0.832292 0.0859375 0.322917
0 0.0789063 0.539583 0.0140625 0.0291667
0 0.129688 0.805208 0.025 0.0979167
8 0.829687 0.404167 0.0375 0.025
8 0.901563 0.439583 0.05625 0.0625
8 0.0429688 0.832292 0.0859375 0.322917
0 0.308594 0.875 0.0328125 0.0833333
0 0.0804688 0.538542 0.0171875 0.0270833
0 0.13125 0.805208 0.03125 0.10625
8 0.841406 0.404167 0.0203125 0.025
9 0.232812 0.452083 0.0125 0.0208333
8 0.828125 0.404167 0.034375 0.025
8 0.901563 0.438542 0.05625 0.0604167
0 0.30625 0.876042 0.034375 0.08125
0 0.128125 0.805208 0.025 0.0979167
8 0.917969 0.610417 0.0421875 0.104167
8 0.83125 0.402083 0.0375 0.0291667
8 0.903125 0.434375 0.05625 0.0604167
0 0.30625 0.876042 0.034375 0.08125
0 0.128125 0.805208 0.025 0.0979167
8 0.917969 0.610417 0.0421875 0.104167
8 0.83125 0.402083 0.0375 0.0291667
8 0.903125 0.434375 0.05625 0.0604167
0 0.30625 0.872917 0.034375 0.0791667
0 0.128125 0.805208 0.025 0.0979167
10 0.91875 0.6125 0.04375 0.104167
8 0.828906 0.402083 0.0359375 0.0291667
8 0.903125 0.433333 0.05625 0.0583333
0 0.30625 0.872917 0.034375 0.0791667
0 0.128125 0.805208 0.025 0.0979167
10 0.91875 0.6125 0.04375 0.104167
8 0.828906 0.402083 0.0359375 0.0291667
8 0.903125 0.433333 0.05625 0.0583333
0 0.30625 0.875 0.034375 0.0833333
0 0.128125 0.804167 0.025 0.1
8 0.91875 0.592708 0.04375 0.0645833
8 0.829687 0.402083 0.0375 0.0291667
8 0.903125 0.435417 0.05625 0.0541667
0 0.30625 0.875 0.034375 0.0833333
0 0.128125 0.804167 0.025 0.1
8 0.91875 0.592708 0.04375 0.0645833
8 0.829687 0.402083 0.0375 0.0291667
8 0.903125 0.435417 0.05625 0.0541667
0 0.30625 0.875 0.034375 0.0833333
0 0.128125 0.805208 0.025 0.0979167
8 0.840625 0.40625 0.01875 0.025
9 0.232031 0.453125 0.0140625 0.0229167
8 0.829687 0.404167 0.034375 0.025
8 0.902344 0.438542 0.0578125 0.0604167
0 0.30625 0.875 0.034375 0.0833333
0 0.128125 0.805208 0.025 0.0979167
8 0.840625 0.40625 0.01875 0.025
9 0.232031 0.453125 0.0140625 0.0229167
8 0.829687 0.404167 0.034375 0.025
8 0.902344 0.438542 0.0578125 0.0604167
0 0.307031 0.875 0.0328125 0.0833333
0 0.0796875 0.538542 0.015625 0.0270833
0 0.127344 0.805208 0.0234375 0.0979167
8 0.842188 0.405208 0.015625 0.0229167
8 0.919531 0.609375 0.0421875 0.0979167
8 0.827344 0.404167 0.0328125 0.025
8 0.901563 0.4375 0.053125 0.0541667
0 0.307031 0.875 0.0328125 0.0833333
0 0.0796875 0.538542 0.015625 0.0270833
0 0.127344 0.805208 0.0234375 0.0979167
8 0.842188 0.405208 0.015625 0.0229167
8 0.919531 0.609375 0.0421875 0.0979167
8 0.827344 0.404167 0.0328125 0.025
8 0.901563 0.4375 0.053125 0.0541667
8 0.210938 0.846875 0.31875 0.289583
0 0.0796875 0.539583 0.0125 0.0291667
0 0.128906 0.805208 0.0265625 0.0979167
8 0.91875 0.605208 0.04375 0.0895833
8 0.825781 0.403125 0.0296875 0.0270833
8 0.903125 0.433333 0.05625 0.0583333
8 0.210938 0.846875 0.31875 0.289583
0 0.0796875 0.539583 0.0125 0.0291667
0 0.128906 0.805208 0.0265625 0.0979167
8 0.91875 0.605208 0.04375 0.0895833
8 0.825781 0.403125 0.0296875 0.0270833
8 0.903125 0.433333 0.05625 0.0583333
0 0.307031 0.873958 0.0328125 0.08125
0 0.078125 0.538542 0.0125 0.0270833
0 0.128125 0.805208 0.025 0.0979167
9 0.232031 0.453125 0.0140625 0.0229167
8 0.827344 0.402083 0.0328125 0.0291667
8 0.902344 0.432292 0.0578125 0.0604167
0 0.307031 0.873958 0.0328125 0.08125
0 0.078125 0.538542 0.0125 0.0270833
0 0.128125 0.805208 0.025 0.0979167
9 0.232031 0.453125 0.0140625 0.0229167
8 0.827344 0.402083 0.0328125 0.0291667
8 0.902344 0.432292 0.0578125 0.0604167
0 0.0789063 0.539583 0.0140625 0.0291667
0 0.128125 0.805208 0.025 0.0979167
8 0.84375 0.404167 0.015625 0.025
8 0.91875 0.60625 0.04375 0.0916667
8 0.826563 0.403125 0.028125 0.0270833
8 0.903906 0.434375 0.0578125 0.0604167
0 0.0789063 0.539583 0.0140625 0.0291667
0 0.128125 0.805208 0.025 0.0979167
8 0.84375 0.404167 0.015625 0.025
8 0.91875 0.60625 0.04375 0.0916667
8 0.826563 0.403125 0.028125 0.0270833
8 0.903906 0.434375 0.0578125 0.0604167
0 0.307813 0.875 0.03125 0.0833333
0 0.0789063 0.538542 0.0140625 0.03125
0 0.129688 0.805208 0.021875 0.0979167
8 0.84375 0.407292 0.0125 0.0229167
8 0.826563 0.404167 0.028125 0.025
8 0.901563 0.438542 0.059375 0.0604167
0 0.307813 0.875 0.03125 0.0833333
0 0.0789063 0.538542 0.0140625 0.03125
0 0.129688 0.805208 0.021875 0.0979167
8 0.84375 0.407292 0.0125 0.0229167
8 0.826563 0.404167 0.028125 0.025
8 0.901563 0.438542 0.059375 0.0604167
0 0.128125 0.802083 0.021875 0.0916667
9 0.377344 0.470833 0.0171875 0.0333333
8 0.91875 0.610417 0.040625 0.1
9 0.232812 0.453125 0.0125 0.0229167
8 0.825781 0.404167 0.0296875 0.025
8 0.901563 0.4375 0.059375 0.0583333
0 0.128125 0.802083 0.021875 0.0916667
9 0.377344 0.470833 0.0171875 0.0333333
8 0.91875 0.610417 0.040625 0.1
9 0.232812 0.453125 0.0125 0.0229167
8 0.825781 0.404167 0.0296875 0.025
8 0.901563 0.4375 0.059375 0.0583333
0 0.0796875 0.538542 0.01875 0.03125
0 0.128906 0.804167 0.0203125 0.0958333
9 0.232812 0.453125 0.0125 0.0229167
8 0.828125 0.403125 0.03125 0.0270833
8 0.903125 0.436458 0.05625 0.05625
0 0.0796875 0.538542 0.01875 0.03125
0 0.128906 0.804167 0.0203125 0.0958333
9 0.232812 0.453125 0.0125 0.0229167
8 0.828125 0.403125 0.03125 0.0270833
8 0.903125 0.436458 0.05625 0.05625
0 0.0789063 0.5375 0.0140625 0.025
0 0.132812 0.797917 0.028125 0.0958333
8 0.84375 0.404167 0.0125 0.025
9 0.232812 0.453125 0.0125 0.0229167
8 0.825781 0.403125 0.0265625 0.0270833
8 0.902344 0.43125 0.0578125 0.0541667
0 0.0789063 0.5375 0.0140625 0.025
0 0.132812 0.797917 0.028125 0.0958333
8 0.84375 0.404167 0.0125 0.025
9 0.232812 0.453125 0.0125 0.0229167
8 0.825781 0.403125 0.0265625 0.0270833
8 0.902344 0.43125 0.0578125 0.0541667
0 0.0796875 0.5375 0.015625 0.0291667
8 0.207813 0.835417 0.353125 0.329167
0 0.138281 0.8 0.0265625 0.1
8 0.91875 0.6 0.04375 0.075
8 0.827344 0.403125 0.0328125 0.0270833
8 0.903125 0.433333 0.05625 0.0625
0 0.0796875 0.5375 0.015625 0.0291667
8 0.207813 0.835417 0.353125 0.329167
0 0.138281 0.8 0.0265625 0.1
8 0.91875 0.6 0.04375 0.075
8 0.827344 0.403125 0.0328125 0.0270833
8 0.903125 0.433333 0.05625 0.0625
0 0.142969 0.801042 0.0203125 0.09375
9 0.377344 0.470833 0.0140625 0.0333333
8 0.91875 0.607292 0.04375 0.09375
9 0.232031 0.453125 0.0109375 0.01875
8 0.828125 0.403125 0.03125 0.0270833
8 0.903125 0.435417 0.05625 0.0541667
0 0.142969 0.801042 0.0203125 0.09375
9 0.377344 0.470833 0.0140625 0.0333333
8 0.91875 0.607292 0.04375 0.09375
9 0.232031 0.453125 0.0109375 0.01875
8 0.828125 0.403125 0.03125 0.0270833
8 0.903125 0.435417 0.05625 0.0541667
0 0.309375 0.877083 0.03125 0.0875
0 0.0796875 0.539583 0.0125 0.0291667
0 0.142188 0.8 0.021875 0.0958333
10 0.91875 0.615625 0.04375 0.10625
9 0.232812 0.452083 0.0125 0.0208333
8 0.83125 0.404167 0.0375 0.025
8 0.901563 0.4375 0.05625 0.0583333
0 0.309375 0.877083 0.03125 0.0875
0 0.0796875 0.539583 0.0125 0.0291667
0 0.142188 0.8 0.021875 0.0958333
10 0.91875 0.615625 0.04375 0.10625
9 0.232812 0.452083 0.0125 0.0208333
8 0.83125 0.404167 0.0375 0.025
8 0.901563 0.4375 0.05625 0.0583333
0 0.0796875 0.540625 0.015625 0.03125
0 0.140625 0.801042 0.021875 0.0979167
9 0.232031 0.453125 0.0140625 0.0229167
8 0.91875 0.604167 0.04375 0.0875
8 0.83125 0.404167 0.0375 0.025
8 0.901563 0.4375 0.05625 0.0583333
0 0.140625 0.802083 0.021875 0.0958333
9 0.232031 0.453125 0.0140625 0.0229167
8 0.91875 0.604167 0.04375 0.0875
8 0.83125 0.404167 0.0375 0.025
8 0.901563 0.4375 0.05625 0.0583333
0 0.140625 0.802083 0.021875 0.0958333
8 0.84375 0.404167 0.0125 0.025
8 0.826563 0.403125 0.028125 0.0270833
8 0.903125 0.433333 0.05625 0.0583333
0 0.0789063 0.536458 0.0109375 0.0270833
0 0.141406 0.803125 0.0203125 0.09375
9 0.232812 0.453125 0.0125 0.0229167
8 0.828125 0.403125 0.03125 0.0270833
8 0.902344 0.433333 0.0578125 0.0583333
0 0.0789063 0.536458 0.0109375 0.0270833
0 0.141406 0.803125 0.0203125 0.09375
9 0.232812 0.453125 0.0125 0.0229167
8 0.828125 0.403125 0.03125 0.0270833
8 0.902344 0.433333 0.0578125 0.0583333
0 0.307813 0.875 0.034375 0.0833333
0 0.140625 0.801042 0.025 0.102083
8 0.91875 0.607292 0.04375 0.09375
9 0.157031 0.441667 0.0078125 0.0166667
9 0.232031 0.452083 0.0140625 0.0208333
8 0.828906 0.404167 0.0328125 0.025
8 0.903125 0.435417 0.05625 0.0583333
0 0.307813 0.875 0.034375 0.0833333
0 0.140625 0.801042 0.025 0.102083
8 0.91875 0.607292 0.04375 0.09375
9 0.157031 0.441667 0.0078125 0.0166667
9 0.232031 0.452083 0.0140625 0.0208333
8 0.828906 0.404167 0.0328125 0.025
8 0.903125 0.435417 0.05625 0.0583333
0 0.307813 0.875 0.034375 0.0833333
0 0.140625 0.802083 0.021875 0.0958333
9 0.232031 0.453125 0.0140625 0.0229167
8 0.91875 0.608333 0.04375 0.0916667
8 0.83125 0.403125 0.0375 0.0270833
8 0.901563 0.4375 0.05625 0.0583333
0 0.307813 0.875 0.034375 0.0833333
0 0.140625 0.802083 0.021875 0.0958333
9 0.232031 0.453125 0.0140625 0.0229167
8 0.91875 0.608333 0.04375 0.0916667
8 0.83125 0.403125 0.0375 0.0270833
8 0.901563 0.4375 0.05625 0.0583333
0 0.141406 0.801042 0.0234375 0.0979167
8 0.91875 0.602083 0.04375 0.0791667
8 0.828906 0.404167 0.0328125 0.025
8 0.903125 0.435417 0.05625 0.0541667
0 0.141406 0.801042 0.0234375 0.0979167
8 0.91875 0.602083 0.04375 0.0791667
8 0.828906 0.404167 0.0328125 0.025
8 0.903125 0.435417 0.05625 0.0541667
0 0.141406 0.801042 0.0203125 0.09375
8 0.91875 0.609375 0.04375 0.0979167
9 0.378125 0.470833 0.015625 0.0333333
9 0.232812 0.453125 0.0125 0.0229167
8 0.826563 0.403125 0.028125 0.0270833
8 0.903125 0.435417 0.05625 0.0541667
0 0.141406 0.801042 0.0203125 0.09375
8 0.91875 0.609375 0.04375 0.0979167
9 0.378125 0.470833 0.015625 0.0333333
9 0.232812 0.453125 0.0125 0.0229167
8 0.826563 0.403125 0.028125 0.0270833
8 0.903125 0.435417 0.05625 0.0541667
0 0.141406 0.802083 0.0203125 0.0916667
8 0.91875 0.607292 0.04375 0.0979167
9 0.232812 0.453125 0.0125 0.0229167
8 0.826563 0.403125 0.028125 0.0270833
8 0.903125 0.433333 0.05625 0.0583333
0 0.141406 0.802083 0.0203125 0.0916667
8 0.91875 0.607292 0.04375 0.0979167
9 0.232812 0.453125 0.0125 0.0229167
8 0.826563 0.403125 0.028125 0.0270833
8 0.903125 0.433333 0.05625 0.0583333
0 0.141406 0.801042 0.0203125 0.09375
8 0.91875 0.613542 0.04375 0.110417
9 0.232031 0.452083 0.0140625 0.0208333
8 0.826563 0.403125 0.028125 0.0270833
8 0.903906 0.434375 0.0578125 0.05625
0 0.141406 0.801042 0.0203125 0.09375
8 0.91875 0.613542 0.04375 0.110417
9 0.232031 0.452083 0.0140625 0.0208333
8 0.826563 0.403125 0.028125 0.0270833
8 0.903906 0.434375 0.0578125 0.05625
0 0.141406 0.802083 0.0203125 0.0958333
8 0.828125 0.404167 0.03125 0.025
8 0.903125 0.435417 0.05625 0.0583333
0 0.141406 0.802083 0.0203125 0.0958333
8 0.828125 0.404167 0.03125 0.025
8 0.903125 0.435417 0.05625 0.0583333
0 0.142188 0.802083 0.01875 0.0958333
8 0.826563 0.404167 0.028125 0.025
8 0.901563 0.4375 0.05625 0.0583333
0 0.142188 0.802083 0.01875 0.0958333
8 0.826563 0.404167 0.028125 0.025
8 0.901563 0.4375 0.05625 0.0583333
0 0.141406 0.802083 0.0203125 0.0958333
9 0.232812 0.453125 0.0125 0.01875
8 0.826563 0.404167 0.028125 0.025
8 0.902344 0.439583 0.0578125 0.0625
0 0.141406 0.802083 0.0203125 0.0958333
9 0.232812 0.453125 0.0125 0.01875
8 0.826563 0.404167 0.028125 0.025
8 0.902344 0.439583 0.0578125 0.0625
0 0.30625 0.871875 0.03125 0.0729167
0 0.142188 0.802083 0.021875 0.1
9 0.232812 0.453125 0.0125 0.0229167
8 0.917188 0.6125 0.040625 0.104167
8 0.825781 0.404167 0.0296875 0.025
8 0.903125 0.436458 0.05625 0.0604167
0 0.30625 0.871875 0.03125 0.0729167
0 0.142188 0.802083 0.021875 0.1
9 0.232812 0.453125 0.0125 0.0229167
8 0.917188 0.6125 0.040625 0.104167
8 0.825781 0.404167 0.0296875 0.025
8 0.903125 0.436458 0.05625 0.0604167
0 0.141406 0.801042 0.0265625 0.102083
8 0.917969 0.611458 0.0421875 0.10625
8 0.829687 0.403125 0.034375 0.0270833
8 0.903906 0.434375 0.0546875 0.05625
0 0.141406 0.801042 0.0265625 0.102083
8 0.917969 0.611458 0.0421875 0.10625
8 0.829687 0.403125 0.034375 0.0270833
8 0.903906 0.434375 0.0546875 0.05625
0 0.0789063 0.5375 0.0140625 0.025
0 0.141406 0.803125 0.0234375 0.0979167
9 0.378125 0.469792 0.015625 0.0354167
8 0.91875 0.605208 0.04375 0.0854167
8 0.83125 0.403125 0.0375 0.0270833
8 0.903125 0.436458 0.05625 0.0604167
0 0.0789063 0.5375 0.0140625 0.025
0 0.141406 0.803125 0.0234375 0.0979167
9 0.378125 0.469792 0.015625 0.0354167
8 0.91875 0.605208 0.04375 0.0854167
8 0.83125 0.403125 0.0375 0.0270833
8 0.903125 0.436458 0.05625 0.0604167
0 0.0789063 0.5375 0.0109375 0.025
0 0.142188 0.801042 0.021875 0.0979167
9 0.232812 0.453125 0.0125 0.01875
8 0.917969 0.611458 0.0421875 0.102083
8 0.829687 0.403125 0.034375 0.0270833
8 0.903125 0.439583 0.05625 0.0666667
0 0.0789063 0.5375 0.0109375 0.025
0 0.142188 0.801042 0.021875 0.0979167
9 0.232812 0.453125 0.0125 0.01875
8 0.917969 0.611458 0.0421875 0.102083
8 0.829687 0.403125 0.034375 0.0270833
8 0.903125 0.439583 0.05625 0.0666667
0 0.078125 0.5375 0.0125 0.025
0 0.141406 0.801042 0.0234375 0.0979167
9 0.376563 0.470833 0.015625 0.0333333
9 0.232812 0.453125 0.0125 0.0229167
8 0.917188 0.607292 0.040625 0.09375
8 0.829687 0.403125 0.0375 0.0270833
8 0.901563 0.438542 0.05625 0.0604167
0 0.0796875 0.539583 0.015625 0.0375
0 0.142188 0.804167 0.01875 0.1
9 0.376563 0.470833 0.015625 0.0333333
9 0.232812 0.453125 0.0125 0.0229167
8 0.917188 0.607292 0.040625 0.09375
8 0.829687 0.403125 0.0375 0.0270833
8 0.901563 0.438542 0.05625 0.0604167
0 0.0796875 0.539583 0.015625 0.0375
0 0.142188 0.804167 0.01875 0.1
8 0.917969 0.610417 0.0421875 0.0958333
8 0.828125 0.403125 0.034375 0.0270833
8 0.903125 0.439583 0.05625 0.0708333
0 0.0796875 0.541667 0.0125 0.0333333
0 0.142188 0.804167 0.021875 0.1
9 0.232031 0.453125 0.0109375 0.0229167
8 0.829687 0.403125 0.0375 0.0270833
8 0.903125 0.435417 0.05625 0.0625
0 0.0796875 0.541667 0.0125 0.0333333
0 0.142188 0.804167 0.021875 0.1
9 0.232031 0.453125 0.0109375 0.0229167
8 0.829687 0.403125 0.0375 0.0270833
8 0.903125 0.435417 0.05625 0.0625
0 0.142969 0.803125 0.0203125 0.0979167
8 0.917188 0.6125 0.040625 0.104167
9 0.232031 0.452083 0.0109375 0.0208333
9 0.378125 0.470833 0.015625 0.0333333
8 0.83125 0.404167 0.0375 0.025
8 0.901563 0.438542 0.059375 0.0604167
0 0.142969 0.803125 0.0203125 0.0979167
8 0.917188 0.6125 0.040625 0.104167
9 0.232031 0.452083 0.0109375 0.0208333
9 0.378125 0.470833 0.015625 0.0333333
8 0.83125 0.404167 0.0375 0.025
8 0.901563 0.438542 0.059375 0.0604167
0 0.142188 0.802083 0.01875 0.0958333
8 0.828906 0.404167 0.0359375 0.025
8 0.901563 0.438542 0.059375 0.0604167
0 0.142188 0.802083 0.01875 0.0958333
8 0.828906 0.404167 0.0359375 0.025
8 0.901563 0.438542 0.059375 0.0604167
4 0.732031 0.423958 0.0421875 0.0145833
0 0.142969 0.803125 0.0234375 0.09375
8 0.84375 0.407292 0.015625 0.0229167
8 0.91875 0.604167 0.04375 0.0875
8 0.829687 0.405208 0.034375 0.0270833
8 0.901563 0.438542 0.05625 0.0604167
4 0.732031 0.423958 0.0421875 0.0145833
0 0.142969 0.803125 0.0234375 0.09375
8 0.84375 0.407292 0.015625 0.0229167
8 0.91875 0.604167 0.04375 0.0875
8 0.829687 0.405208 0.034375 0.0270833
8 0.901563 0.438542 0.05625 0.0604167
4 0.73125 0.425 0.040625 0.0166667
0 0.141406 0.802083 0.0234375 0.0916667
8 0.84375 0.404167 0.0125 0.025
9 0.232031 0.452083 0.0140625 0.025
8 0.917969 0.611458 0.0390625 0.10625
8 0.825 0.404167 0.028125 0.025
8 0.903125 0.4375 0.05625 0.0625
4 0.73125 0.425 0.040625 0.0166667
0 0.141406 0.802083 0.0234375 0.0916667
8 0.84375 0.404167 0.0125 0.025
9 0.232031 0.452083 0.0140625 0.025
8 0.917969 0.611458 0.0390625 0.10625
8 0.825 0.404167 0.028125 0.025
8 0.903125 0.4375 0.05625 0.0625
8 0.189063 0.833333 0.365625 0.325
0 0.0789063 0.538542 0.0171875 0.0270833
0 0.142969 0.801042 0.0203125 0.09375
9 0.376563 0.470833 0.015625 0.0333333
9 0.232812 0.453125 0.0125 0.0229167
8 0.827344 0.403125 0.0328125 0.0270833
8 0.903125 0.435417 0.05625 0.0625
8 0.189063 0.833333 0.365625 0.325
0 0.0789063 0.538542 0.0171875 0.0270833
0 0.142969 0.801042 0.0203125 0.09375
9 0.376563 0.470833 0.015625 0.0333333
9 0.232812 0.453125 0.0125 0.0229167
8 0.827344 0.403125 0.0328125 0.0270833
8 0.903125 0.435417 0.05625 0.0625
0 0.0789063 0.539583 0.0140625 0.0291667
0 0.142188 0.802083 0.021875 0.0916667
8 0.844531 0.404167 0.0140625 0.025
10 0.91875 0.611458 0.04375 0.10625
9 0.376563 0.469792 0.015625 0.0354167
9 0.233594 0.452083 0.0109375 0.0208333
8 0.826563 0.403125 0.028125 0.0270833
8 0.903125 0.435417 0.05625 0.0625
0 0.0789063 0.539583 0.0140625 0.0291667
0 0.142188 0.802083 0.021875 0.0916667
8 0.844531 0.404167 0.0140625 0.025
10 0.91875 0.611458 0.04375 0.10625
9 0.376563 0.469792 0.015625 0.0354167
9 0.233594 0.452083 0.0109375 0.0208333
8 0.826563 0.403125 0.028125 0.0270833
8 0.903125 0.435417 0.05625 0.0625
0 0.142969 0.797917 0.0203125 0.0958333
9 0.232812 0.452083 0.0125 0.0208333
8 0.917188 0.607292 0.040625 0.09375
8 0.829687 0.404167 0.034375 0.025
8 0.902344 0.4375 0.0578125 0.0583333
0 0.142969 0.797917 0.0203125 0.0958333
9 0.232812 0.452083 0.0125 0.0208333
8 0.917188 0.607292 0.040625 0.09375
8 0.829687 0.404167 0.034375 0.025
8 0.902344 0.4375 0.0578125 0.0583333
0 0.0789063 0.5375 0.0140625 0.025
0 0.142188 0.8 0.021875 0.0958333
8 0.842188 0.40625 0.01875 0.025
9 0.232031 0.453125 0.0140625 0.0229167
8 0.91875 0.605208 0.04375 0.0895833
8 0.829687 0.405208 0.034375 0.0270833
8 0.902344 0.439583 0.0578125 0.0583333
0 0.0789063 0.5375 0.0140625 0.025
0 0.142188 0.8 0.021875 0.0958333
8 0.842188 0.40625 0.01875 0.025
9 0.232031 0.453125 0.0140625 0.0229167
8 0.91875 0.605208 0.04375 0.0895833
8 0.829687 0.405208 0.034375 0.0270833
8 0.902344 0.439583 0.0578125 0.0583333
0 0.142969 0.798958 0.0203125 0.09375
8 0.91875 0.604167 0.04375 0.0875
8 0.828125 0.404167 0.034375 0.025
8 0.901563 0.4375 0.059375 0.0583333
0 0.142969 0.798958 0.0203125 0.09375
8 0.91875 0.604167 0.04375 0.0875
8 0.828125 0.404167 0.034375 0.025
8 0.901563 0.4375 0.059375 0.0583333
0 0.0789063 0.536458 0.0140625 0.0229167
0 0.142188 0.798958 0.021875 0.09375
9 0.232812 0.453125 0.0125 0.0229167
8 0.826563 0.403125 0.03125 0.0270833
8 0.903906 0.435417 0.0578125 0.0625
0 0.0789063 0.536458 0.0140625 0.0229167
0 0.142188 0.798958 0.021875 0.09375
9 0.232812 0.453125 0.0125 0.0229167
8 0.826563 0.403125 0.03125 0.0270833
8 0.903906 0.435417 0.0578125 0.0625
0 0.142188 0.802083 0.021875 0.0958333
8 0.917969 0.609375 0.0421875 0.0979167
8 0.826563 0.403125 0.028125 0.0270833
8 0.903125 0.434375 0.059375 0.0604167
0 0.142188 0.802083 0.021875 0.0958333
8 0.917969 0.609375 0.0421875 0.0979167
8 0.826563 0.403125 0.028125 0.0270833
8 0.903125 0.434375 0.059375 0.0604167
0 0.309375 0.879167 0.0375 0.0833333
0 0.142188 0.802083 0.021875 0.0958333
9 0.23125 0.452083 0.0125 0.0208333
8 0.917188 0.605208 0.040625 0.0895833
8 0.825 0.404167 0.028125 0.025
8 0.903125 0.436458 0.05625 0.0604167
0 0.309375 0.879167 0.0375 0.0833333
0 0.142188 0.802083 0.021875 0.0958333
9 0.23125 0.452083 0.0125 0.0208333
8 0.917188 0.605208 0.040625 0.0895833
8 0.825 0.404167 0.028125 0.025
8 0.903125 0.436458 0.05625 0.0604167
0 0.308594 0.877083 0.0359375 0.0875
0 0.142188 0.8 0.021875 0.0916667
8 0.84375 0.40625 0.0125 0.025
8 0.825781 0.404167 0.0296875 0.025
8 0.903125 0.436458 0.05625 0.05625
0 0.308594 0.877083 0.0359375 0.0875
0 0.142188 0.8 0.021875 0.0916667
8 0.84375 0.40625 0.0125 0.025
8 0.825781 0.404167 0.0296875 0.025
8 0.903125 0.436458 0.05625 0.05625
0 0.141406 0.802083 0.0234375 0.0958333
9 0.155469 0.441667 0.0078125 0.0166667
8 0.842969 0.40625 0.0171875 0.025
9 0.23125 0.453125 0.0125 0.0229167
8 0.827344 0.404167 0.0328125 0.025
8 0.902344 0.436458 0.0578125 0.05625
0 0.141406 0.802083 0.0234375 0.0958333
9 0.155469 0.441667 0.0078125 0.0166667
8 0.842969 0.40625 0.0171875 0.025
9 0.23125 0.453125 0.0125 0.0229167
8 0.827344 0.404167 0.0328125 0.025
8 0.902344 0.436458 0.0578125 0.05625
0 0.142969 0.802083 0.0203125 0.0958333
8 0.84375 0.404167 0.0125 0.025
8 0.825 0.403125 0.028125 0.0270833
8 0.903125 0.433333 0.05625 0.0583333
0 0.142969 0.802083 0.0203125 0.0958333
8 0.84375 0.404167 0.0125 0.025
8 0.825 0.403125 0.028125 0.0270833
8 0.903125 0.433333 0.05625 0.0583333
8 0.189844 0.832292 0.367188 0.322917
0 0.142188 0.802083 0.021875 0.104167
9 0.23125 0.453125 0.0125 0.0229167
8 0.84375 0.404167 0.0125 0.025
8 0.825 0.403125 0.028125 0.0270833
8 0.903125 0.435417 0.05625 0.0625
8 0.189844 0.832292 0.367188 0.322917
0 0.142188 0.802083 0.021875 0.104167
9 0.23125 0.453125 0.0125 0.0229167
8 0.84375 0.404167 0.0125 0.025
8 0.825 0.403125 0.028125 0.0270833
8 0.903125 0.435417 0.05625 0.0625
4 0.732813 0.425 0.040625 0.0166667
0 0.142188 0.801042 0.021875 0.0979167
9 0.23125 0.452083 0.0125 0.0208333
8 0.84375 0.404167 0.0125 0.025
8 0.917188 0.610417 0.040625 0.1
8 0.825 0.403125 0.028125 0.0270833
8 0.903125 0.433333 0.05625 0.0625
4 0.732813 0.425 0.040625 0.0166667
0 0.142188 0.801042 0.021875 0.0979167
9 0.23125 0.452083 0.0125 0.0208333
8 0.84375 0.404167 0.0125 0.025
8 0.917188 0.610417 0.040625 0.1
8 0.825 0.403125 0.028125 0.0270833
8 0.903125 0.433333 0.05625 0.0625
0 0.142969 0.803125 0.0203125 0.0979167
8 0.839063 0.40625 0.021875 0.025
8 0.828906 0.404167 0.0390625 0.025
8 0.901563 0.4375 0.05625 0.0583333
0 0.142188 0.802083 0.021875 0.1
8 0.839063 0.40625 0.021875 0.025
8 0.828906 0.404167 0.0390625 0.025
8 0.901563 0.4375 0.05625 0.0583333
0 0.142188 0.802083 0.021875 0.1
8 0.917188 0.60625 0.040625 0.0916667
8 0.842969 0.40625 0.0171875 0.025
8 0.826563 0.405208 0.034375 0.0270833
8 0.902344 0.435417 0.0546875 0.0541667
4 0.732813 0.426042 0.040625 0.0145833
8 0.191406 0.834375 0.357812 0.322917
0 0.142188 0.801042 0.021875 0.0979167
8 0.917188 0.60625 0.040625 0.0916667
8 0.842969 0.40625 0.0171875 0.025
8 0.826563 0.405208 0.034375 0.0270833
8 0.902344 0.435417 0.0546875 0.0541667
4 0.732813 0.426042 0.040625 0.0145833
8 0.191406 0.834375 0.357812 0.322917
0 0.142188 0.801042 0.021875 0.0979167
8 0.917969 0.603125 0.0421875 0.0854167
9 0.232031 0.453125 0.0109375 0.0229167
8 0.825 0.403125 0.03125 0.0270833
8 0.903125 0.435417 0.05625 0.0541667
4 0.732813 0.426042 0.040625 0.0145833
8 0.19375 0.836458 0.35625 0.31875
0 0.142188 0.802083 0.021875 0.1
8 0.917969 0.603125 0.0421875 0.0854167
9 0.232031 0.453125 0.0109375 0.0229167
8 0.825 0.403125 0.03125 0.0270833
8 0.903125 0.435417 0.05625 0.0541667
4 0.732813 0.426042 0.040625 0.0145833
8 0.19375 0.836458 0.35625 0.31875
0 0.142188 0.802083 0.021875 0.1
8 0.917969 0.595833 0.0421875 0.0708333
8 0.825 0.402083 0.03125 0.0291667
8 0.903125 0.433333 0.05625 0.0583333
0 0.142188 0.801042 0.021875 0.09375
8 0.917969 0.595833 0.0421875 0.0708333
8 0.825 0.402083 0.03125 0.0291667
8 0.903125 0.433333 0.05625 0.0583333
0 0.142188 0.801042 0.021875 0.09375
8 0.826563 0.402083 0.03125 0.0291667
8 0.902344 0.434375 0.0578125 0.0604167
0 0.142188 0.801042 0.021875 0.0979167
8 0.84375 0.40625 0.015625 0.025
8 0.917188 0.610417 0.040625 0.0958333
8 0.825781 0.404167 0.0296875 0.025
8 0.901563 0.4375 0.059375 0.0583333
0 0.142188 0.801042 0.021875 0.0979167
8 0.84375 0.40625 0.015625 0.025
8 0.917188 0.610417 0.040625 0.0958333
8 0.825781 0.404167 0.0296875 0.025
8 0.901563 0.4375 0.059375 0.0583333
0 0.142188 0.801042 0.021875 0.0979167
8 0.84375 0.40625 0.015625 0.0208333
8 0.917188 0.608333 0.040625 0.0958333
8 0.825781 0.404167 0.0296875 0.025
8 0.9 0.4375 0.05625 0.0583333
0 0.142188 0.801042 0.021875 0.0979167
8 0.84375 0.40625 0.015625 0.0208333
8 0.917188 0.608333 0.040625 0.0958333
8 0.825781 0.404167 0.0296875 0.025
8 0.9 0.4375 0.05625 0.0583333
0 0.142188 0.801042 0.021875 0.0979167
8 0.842969 0.404167 0.0171875 0.025
8 0.917188 0.611458 0.040625 0.0979167
8 0.825 0.404167 0.03125 0.025
8 0.901563 0.4375 0.05625 0.0583333
0 0.142188 0.801042 0.021875 0.0979167
8 0.842969 0.404167 0.0171875 0.025
8 0.917188 0.611458 0.040625 0.0979167
8 0.825 0.404167 0.03125 0.025
8 0.901563 0.4375 0.05625 0.0583333
0 0.142188 0.802083 0.021875 0.1
9 0.232031 0.452083 0.0109375 0.0208333
8 0.826563 0.403125 0.03125 0.0270833
8 0.903125 0.435417 0.05625 0.0583333
0 0.142188 0.802083 0.021875 0.1
9 0.232031 0.452083 0.0109375 0.0208333
8 0.826563 0.403125 0.03125 0.0270833
8 0.903125 0.435417 0.05625 0.0583333
0 0.0796875 0.535417 0.015625 0.025
0 0.142188 0.798958 0.021875 0.09375
8 0.84375 0.404167 0.0125 0.025
0 0.916406 0.6125 0.0390625 0.108333
8 0.825 0.403125 0.028125 0.0270833
8 0.903125 0.434375 0.05625 0.0604167
0 0.0796875 0.535417 0.015625 0.025
0 0.142188 0.798958 0.021875 0.09375
8 0.84375 0.404167 0.0125 0.025
0 0.916406 0.6125 0.0390625 0.108333
8 0.825 0.403125 0.028125 0.0270833
8 0.903125 0.434375 0.05625 0.0604167
0 0.310156 0.877083 0.0328125 0.0875
0 0.142969 0.798958 0.0203125 0.0895833
8 0.917188 0.610417 0.040625 0.0958333
8 0.825 0.403125 0.03125 0.0270833
8 0.903125 0.435417 0.05625 0.0541667
0 0.310156 0.877083 0.0328125 0.0875
0 0.142969 0.798958 0.0203125 0.0895833
8 0.917188 0.610417 0.040625 0.0958333
8 0.825 0.403125 0.03125 0.0270833
8 0.903125 0.435417 0.05625 0.0541667
0 0.142188 0.798958 0.021875 0.0895833
8 0.840625 0.405208 0.01875 0.0270833
10 0.917188 0.614583 0.040625 0.104167
8 0.826563 0.404167 0.034375 0.0291667
8 0.901563 0.4375 0.05625 0.0583333
0 0.142188 0.798958 0.021875 0.0895833
8 0.840625 0.405208 0.01875 0.0270833
10 0.917188 0.614583 0.040625 0.104167
8 0.826563 0.404167 0.034375 0.0291667
8 0.901563 0.4375 0.05625 0.0583333
8 0.19375 0.834375 0.35 0.322917
0 0.142188 0.8 0.021875 0.0916667
8 0.842969 0.40625 0.0171875 0.025
10 0.917188 0.613542 0.040625 0.102083
8 0.825781 0.405208 0.0296875 0.0270833
8 0.9 0.4375 0.05625 0.0583333
8 0.19375 0.834375 0.35 0.322917
0 0.142188 0.8 0.021875 0.0916667
8 0.842969 0.40625 0.0171875 0.025
10 0.917188 0.613542 0.040625 0.102083
8 0.825781 0.405208 0.0296875 0.0270833
8 0.9 0.4375 0.05625 0.0583333
0 0.142969 0.798958 0.0203125 0.0895833
8 0.917188 0.609375 0.040625 0.0979167
8 0.825781 0.403125 0.0296875 0.0270833
8 0.902344 0.434375 0.0578125 0.05625
0 0.142969 0.798958 0.0203125 0.0895833
8 0.917188 0.609375 0.040625 0.0979167
8 0.825781 0.403125 0.0296875 0.0270833
8 0.902344 0.434375 0.0578125 0.05625
0 0.142188 0.798958 0.021875 0.0895833
8 0.826563 0.403125 0.03125 0.0270833
8 0.903125 0.433333 0.05625 0.0583333
0 0.142188 0.798958 0.021875 0.0895833
8 0.826563 0.403125 0.03125 0.0270833
8 0.903125 0.433333 0.05625 0.0583333
0 0.142969 0.8 0.0203125 0.0916667
9 0.23125 0.452083 0.0125 0.0208333
8 0.826563 0.403125 0.034375 0.0270833
8 0.903125 0.435417 0.05625 0.0625
0 0.142969 0.8 0.0203125 0.0916667
9 0.23125 0.452083 0.0125 0.0208333
8 0.826563 0.403125 0.034375 0.0270833
8 0.903125 0.435417 0.05625 0.0625
0 0.142188 0.798958 0.021875 0.0895833
8 0.829687 0.403125 0.0375 0.0270833
8 0.903125 0.435417 0.05625 0.0541667
0 0.142188 0.798958 0.021875 0.0895833
8 0.829687 0.403125 0.0375 0.0270833
8 0.903125 0.435417 0.05625 0.0541667
0 0.0789063 0.535417 0.0140625 0.0208333
0 0.142188 0.8 0.021875 0.0916667
8 0.841406 0.40625 0.0203125 0.025
8 0.829687 0.405208 0.0375 0.0270833
8 0.903125 0.435417 0.05625 0.0541667
0 0.0789063 0.535417 0.0140625 0.0208333
0 0.142188 0.8 0.021875 0.0916667
8 0.841406 0.40625 0.0203125 0.025
8 0.829687 0.405208 0.0375 0.0270833
8 0.903125 0.435417 0.05625 0.0541667
0 0.078125 0.535417 0.015625 0.025
0 0.142969 0.8 0.0203125 0.0916667
8 0.917188 0.608333 0.040625 0.0916667
9 0.230469 0.453125 0.0109375 0.0229167
8 0.825 0.404167 0.028125 0.025
8 0.902344 0.435417 0.0578125 0.0541667
0 0.078125 0.535417 0.015625 0.025
0 0.142969 0.8 0.0203125 0.0916667
8 0.917188 0.608333 0.040625 0.0916667
9 0.230469 0.453125 0.0109375 0.0229167
8 0.825 0.404167 0.028125 0.025
8 0.902344 0.435417 0.0578125 0.0541667
0 0.0789063 0.535417 0.0140625 0.0291667
0 0.142188 0.801042 0.021875 0.09375
8 0.825 0.403125 0.028125 0.0270833
8 0.903125 0.433333 0.05625 0.0541667
0 0.0789063 0.535417 0.0140625 0.0291667
0 0.142188 0.801042 0.021875 0.09375
8 0.825 0.403125 0.028125 0.0270833
8 0.903125 0.433333 0.05625 0.0541667
0 0.0789063 0.533333 0.0171875 0.025
0 0.142188 0.8 0.021875 0.0916667
9 0.23125 0.453125 0.0125 0.0229167
8 0.825 0.403125 0.028125 0.0270833
8 0.903125 0.433333 0.05625 0.0583333
0 0.0789063 0.533333 0.0171875 0.025
0 0.142188 0.8 0.021875 0.0916667
9 0.23125 0.453125 0.0125 0.0229167
8 0.825 0.403125 0.028125 0.0270833
8 0.903125 0.433333 0.05625 0.0583333
0 0.142188 0.8 0.021875 0.0916667
9 0.23125 0.453125 0.0125 0.0229167
8 0.825781 0.403125 0.0296875 0.0270833
8 0.903125 0.435417 0.05625 0.0583333
0 0.142188 0.8 0.021875 0.0916667
9 0.23125 0.453125 0.0125 0.0229167
8 0.825781 0.403125 0.0296875 0.0270833
8 0.903125 0.435417 0.05625 0.0583333
0 0.310156 0.879167 0.0328125 0.0875
0 0.142188 0.801042 0.021875 0.09375
8 0.657031 0.503125 0.0234375 0.0395833
8 0.829687 0.404167 0.0375 0.025
8 0.901563 0.4375 0.05625 0.0583333
0 0.310156 0.879167 0.0328125 0.0875
0 0.142188 0.801042 0.021875 0.09375
8 0.657031 0.503125 0.0234375 0.0395833
8 0.829687 0.404167 0.0375 0.025
8 0.901563 0.4375 0.05625 0.0583333
0 0.308594 0.876042 0.0296875 0.0854167
0 0.657812 0.491667 0.009375 0.025
0 0.0789063 0.536458 0.0140625 0.0270833
0 0.142188 0.8 0.021875 0.0916667
9 0.23125 0.453125 0.0125 0.0229167
8 0.826563 0.403125 0.034375 0.0270833
8 0.901563 0.438542 0.05625 0.0604167
0 0.308594 0.876042 0.0296875 0.0854167
0 0.657812 0.491667 0.009375 0.025
0 0.0789063 0.536458 0.0140625 0.0270833
0 0.142188 0.8 0.021875 0.0916667
9 0.23125 0.453125 0.0125 0.0229167
8 0.826563 0.403125 0.034375 0.0270833
8 0.901563 0.438542 0.05625 0.0604167
0 0.078125 0.536458 0.0125 0.0270833
0 0.309375 0.878125 0.03125 0.0854167
0 0.142188 0.8 0.021875 0.0916667
9 0.23125 0.453125 0.0125 0.0229167
8 0.826563 0.403125 0.034375 0.0270833
8 0.902344 0.434375 0.0578125 0.0604167
0 0.078125 0.536458 0.0125 0.0270833
0 0.309375 0.878125 0.03125 0.0854167
0 0.142188 0.8 0.021875 0.0916667
9 0.23125 0.453125 0.0125 0.0229167
8 0.826563 0.403125 0.034375 0.0270833
8 0.902344 0.434375 0.0578125 0.0604167
0 0.142969 0.801042 0.0203125 0.0979167
8 0.828125 0.403125 0.0375 0.0270833
10 0.917188 0.614583 0.040625 0.108333
8 0.903125 0.435417 0.059375 0.0625
0 0.142969 0.801042 0.0203125 0.0979167
8 0.828125 0.403125 0.0375 0.0270833
10 0.917188 0.614583 0.040625 0.108333
8 0.903125 0.435417 0.059375 0.0625
0 0.142969 0.802083 0.0203125 0.0916667
0 0.915625 0.614583 0.0375 0.108333
8 0.830469 0.403125 0.0390625 0.0270833
8 0.902344 0.439583 0.0578125 0.0666667
0 0.142969 0.802083 0.0203125 0.0916667
0 0.915625 0.614583 0.0375 0.108333
8 0.830469 0.403125 0.0390625 0.0270833
8 0.902344 0.439583 0.0578125 0.0666667
0 0.307813 0.878125 0.034375 0.0854167
0 0.142969 0.802083 0.0203125 0.0958333
9 0.230469 0.453125 0.0109375 0.0229167
8 0.828906 0.405208 0.0359375 0.0270833
10 0.915625 0.616667 0.040625 0.108333
8 0.901563 0.439583 0.05625 0.0625
0 0.307813 0.878125 0.034375 0.0854167
0 0.142969 0.802083 0.0203125 0.0958333
9 0.230469 0.453125 0.0109375 0.0229167
8 0.828906 0.405208 0.0359375 0.0270833
10 0.915625 0.616667 0.040625 0.108333
8 0.901563 0.439583 0.05625 0.0625
4 0.732813 0.425 0.040625 0.0166667
0 0.142188 0.801042 0.021875 0.09375
8 0.844531 0.40625 0.0140625 0.025
9 0.23125 0.454167 0.0125 0.025
8 0.828125 0.405208 0.0375 0.0270833
8 0.901563 0.438542 0.05625 0.0604167
4 0.732813 0.425 0.040625 0.0166667
0 0.142188 0.801042 0.021875 0.09375
8 0.844531 0.40625 0.0140625 0.025
9 0.23125 0.454167 0.0125 0.025
8 0.828125 0.405208 0.0375 0.0270833
8 0.901563 0.438542 0.05625 0.0604167
0 0.142969 0.8 0.0203125 0.0875
8 0.83125 0.403125 0.040625 0.0270833
10 0.917188 0.615625 0.040625 0.10625
8 0.903125 0.435417 0.05625 0.0541667
0 0.142969 0.8 0.0203125 0.0916667
8 0.83125 0.403125 0.040625 0.0270833
10 0.917188 0.615625 0.040625 0.10625
8 0.903125 0.435417 0.05625 0.0541667
0 0.142969 0.8 0.0203125 0.0916667
8 0.91875 0.609375 0.04375 0.0979167
8 0.826563 0.403125 0.034375 0.0270833
8 0.903125 0.434375 0.05625 0.0604167
0 0.142969 0.798958 0.0203125 0.0895833
8 0.91875 0.609375 0.04375 0.0979167
8 0.826563 0.403125 0.034375 0.0270833
8 0.903125 0.434375 0.05625 0.0604167
0 0.142969 0.798958 0.0203125 0.0895833
8 0.917188 0.609375 0.040625 0.0979167
8 0.84375 0.404167 0.01875 0.025
8 0.825781 0.403125 0.0296875 0.0270833
8 0.903125 0.433333 0.05625 0.0625
0 0.142969 0.8 0.0203125 0.0916667
8 0.917188 0.609375 0.040625 0.0979167
8 0.84375 0.404167 0.01875 0.025
8 0.825781 0.403125 0.0296875 0.0270833
8 0.903125 0.433333 0.05625 0.0625
0 0.142969 0.8 0.0203125 0.0916667
8 0.91875 0.601042 0.04375 0.0854167
8 0.829687 0.403125 0.040625 0.0270833
8 0.903125 0.435417 0.05625 0.0541667
0 0.0773437 0.535417 0.0140625 0.025
0 0.310156 0.88125 0.0359375 0.0875
0 0.14375 0.802083 0.021875 0.0958333
8 0.91875 0.601042 0.04375 0.0854167
8 0.829687 0.403125 0.040625 0.0270833
8 0.903125 0.435417 0.05625 0.0541667
0 0.0773437 0.535417 0.0140625 0.025
0 0.310156 0.88125 0.0359375 0.0875
0 0.14375 0.802083 0.021875 0.0958333
9 0.23125 0.453125 0.0125 0.0229167
8 0.917188 0.611458 0.046875 0.102083
8 0.83125 0.403125 0.040625 0.0270833
8 0.903125 0.434375 0.05625 0.05625
8 0.214062 0.848958 0.321875 0.29375
0 0.078125 0.5375 0.0125 0.025
0 0.310156 0.880208 0.0359375 0.0895833
0 0.142969 0.802083 0.0234375 0.0958333
9 0.23125 0.453125 0.0125 0.0229167
8 0.917188 0.611458 0.046875 0.102083
8 0.83125 0.403125 0.040625 0.0270833
8 0.903125 0.434375 0.05625 0.05625
8 0.214062 0.848958 0.321875 0.29375
0 0.078125 0.5375 0.0125 0.025
0 0.310156 0.880208 0.0359375 0.0895833
0 0.142969 0.802083 0.0234375 0.0958333
9 0.23125 0.453125 0.0125 0.0229167
8 0.825781 0.403125 0.0296875 0.0270833
8 0.917188 0.597917 0.040625 0.075
8 0.902344 0.433333 0.0578125 0.0583333
4 0.732813 0.425 0.040625 0.0166667
0 0.078125 0.536458 0.0125 0.0229167
0 0.233594 0.823958 0.0328125 0.0604167
0 0.309375 0.88125 0.034375 0.0875
0 0.142969 0.801042 0.0234375 0.0979167
9 0.23125 0.453125 0.0125 0.0229167
8 0.825781 0.403125 0.0296875 0.0270833
8 0.917188 0.597917 0.040625 0.075
8 0.902344 0.433333 0.0578125 0.0583333
4 0.732813 0.425 0.040625 0.0166667
0 0.078125 0.536458 0.0125 0.0229167
0 0.233594 0.823958 0.0328125 0.0604167
0 0.309375 0.88125 0.034375 0.0875
0 0.142969 0.801042 0.0234375 0.0979167
8 0.842188 0.404167 0.021875 0.025
10 0.917188 0.614583 0.040625 0.104167
8 0.828125 0.403125 0.034375 0.0270833
8 0.903125 0.435417 0.05625 0.0625
0 0.657031 0.488542 0.0078125 0.01875
0 0.233594 0.823958 0.0328125 0.0604167
0 0.309375 0.88125 0.0375 0.0875
0 0.142969 0.802083 0.0234375 0.0958333
8 0.842188 0.404167 0.021875 0.025
10 0.917188 0.614583 0.040625 0.104167
8 0.828125 0.403125 0.034375 0.0270833
8 0.903125 0.435417 0.05625 0.0625
0 0.657031 0.488542 0.0078125 0.01875
0 0.233594 0.823958 0.0328125 0.0604167
0 0.309375 0.88125 0.0375 0.0875
0 0.142969 0.802083 0.0234375 0.0958333
8 0.844531 0.404167 0.0171875 0.025
8 0.917188 0.60625 0.040625 0.0916667
8 0.825781 0.403125 0.0296875 0.0270833
8 0.903125 0.435417 0.05625 0.0625
0 0.65625 0.489583 0.009375 0.0166667
0 0.078125 0.5375 0.0125 0.025
0 0.142969 0.801042 0.0203125 0.0979167
8 0.844531 0.404167 0.0171875 0.025
8 0.917188 0.60625 0.040625 0.0916667
8 0.825781 0.403125 0.0296875 0.0270833
8 0.903125 0.435417 0.05625 0.0625
0 0.65625 0.489583 0.009375 0.0166667
0 0.078125 0.5375 0.0125 0.025
0 0.142969 0.801042 0.0203125 0.0979167
8 0.84375 0.40625 0.01875 0.025
8 0.826563 0.405208 0.034375 0.0270833
8 0.902344 0.438542 0.0578125 0.05625
0 0.65625 0.489583 0.009375 0.0166667
0 0.078125 0.5375 0.0125 0.025
0 0.142969 0.801042 0.0203125 0.0979167
8 0.84375 0.40625 0.01875 0.025
8 0.826563 0.405208 0.034375 0.0270833
8 0.902344 0.438542 0.0578125 0.05625
0 0.65625 0.489583 0.009375 0.0166667
0 0.078125 0.5375 0.0125 0.025
0 0.142969 0.801042 0.0203125 0.0979167
8 0.84375 0.40625 0.01875 0.025
8 0.827344 0.405208 0.0328125 0.0270833
10 0.917188 0.614583 0.040625 0.104167
8 0.901563 0.438542 0.059375 0.0604167
8 0.209375 0.840625 0.33125 0.30625
0 0.142188 0.802083 0.021875 0.0958333
8 0.84375 0.40625 0.01875 0.025
8 0.827344 0.405208 0.0328125 0.0270833
10 0.917188 0.614583 0.040625 0.104167
8 0.901563 0.438542 0.059375 0.0604167
8 0.209375 0.840625 0.33125 0.30625
0 0.142188 0.802083 0.021875 0.0958333
8 0.845312 0.404167 0.015625 0.025
10 0.917188 0.614583 0.040625 0.104167
8 0.825 0.404167 0.028125 0.025
8 0.903125 0.435417 0.05625 0.0583333
0 0.65625 0.489583 0.009375 0.0208333
0 0.142969 0.801042 0.0203125 0.0979167
8 0.845312 0.404167 0.015625 0.025
10 0.917188 0.614583 0.040625 0.104167
8 0.825 0.404167 0.028125 0.025
8 0.903125 0.435417 0.05625 0.0583333
0 0.65625 0.489583 0.009375 0.0208333
0 0.142969 0.801042 0.0203125 0.0979167
9 0.232031 0.453125 0.0140625 0.0229167
8 0.917969 0.610417 0.0421875 0.108333
8 0.845312 0.404167 0.015625 0.025
8 0.825 0.403125 0.028125 0.0270833
8 0.902344 0.433333 0.0578125 0.0583333
8 0.20625 0.841667 0.33125 0.308333
0 0.142969 0.801042 0.0203125 0.09375
10 0.917969 0.614583 0.0421875 0.104167
8 0.845312 0.403125 0.015625 0.0229167
8 0.828906 0.402083 0.0359375 0.025
8 0.903125 0.434375 0.059375 0.0604167
8 0.20625 0.841667 0.33125 0.308333
0 0.142969 0.801042 0.0203125 0.09375
10 0.917969 0.614583 0.0421875 0.104167
8 0.845312 0.403125 0.015625 0.0229167
8 0.828906 0.402083 0.0359375 0.025
8 0.903125 0.434375 0.059375 0.0604167
0 0.657812 0.488542 0.009375 0.01875
0 0.142969 0.8 0.0203125 0.0916667
10 0.917969 0.614583 0.0421875 0.104167
8 0.845312 0.403125 0.015625 0.0229167
8 0.828906 0.402083 0.0359375 0.025
8 0.903125 0.434375 0.059375 0.0604167
0 0.657812 0.488542 0.009375 0.01875
0 0.142969 0.8 0.0203125 0.0916667
8 0.845312 0.405208 0.015625 0.0229167
8 0.917188 0.610417 0.040625 0.1
8 0.828125 0.403125 0.03125 0.0270833
8 0.903125 0.435417 0.05625 0.0625
8 0.209375 0.839583 0.34375 0.320833
0 0.142969 0.802083 0.0203125 0.0958333
10 0.917188 0.615625 0.040625 0.10625
8 0.844531 0.407292 0.0171875 0.0270833
8 0.826563 0.405208 0.028125 0.0270833
8 0.901563 0.439583 0.059375 0.0625
8 0.209375 0.839583 0.34375 0.320833
0 0.142969 0.802083 0.0203125 0.0958333
10 0.917188 0.615625 0.040625 0.10625
8 0.844531 0.407292 0.0171875 0.0270833
8 0.826563 0.405208 0.028125 0.0270833
8 0.901563 0.439583 0.059375 0.0625
8 0.208594 0.839583 0.329688 0.3125
0 0.142969 0.8 0.0203125 0.0916667
8 0.844531 0.407292 0.0171875 0.0270833
8 0.828125 0.404167 0.03125 0.025
8 0.901563 0.4375 0.05625 0.0583333
8 0.208594 0.839583 0.329688 0.3125
0 0.142969 0.8 0.0203125 0.0916667
8 0.844531 0.407292 0.0171875 0.0270833
8 0.828125 0.404167 0.03125 0.025
8 0.901563 0.4375 0.05625 0.0583333
0 0.0796875 0.536458 0.0125 0.0270833
0 0.142969 0.801042 0.0203125 0.09375
8 0.842188 0.403125 0.021875 0.0270833
8 0.91875 0.610417 0.04375 0.104167
8 0.829687 0.403125 0.034375 0.0270833
8 0.903125 0.4375 0.05625 0.0625
0 0.0796875 0.536458 0.0125 0.0270833
0 0.142969 0.801042 0.0203125 0.09375
8 0.842188 0.403125 0.021875 0.0270833
8 0.91875 0.610417 0.04375 0.104167
8 0.829687 0.403125 0.034375 0.0270833
8 0.903125 0.4375 0.05625 0.0625
0 0.078125 0.538542 0.0125 0.0270833
0 0.142969 0.8 0.0203125 0.0958333
8 0.845312 0.404167 0.015625 0.025
8 0.91875 0.60625 0.04375 0.0958333
9 0.232031 0.453125 0.0140625 0.0229167
8 0.825781 0.403125 0.0296875 0.0270833
8 0.903906 0.435417 0.0578125 0.0625
0 0.078125 0.538542 0.0125 0.0270833
0 0.142969 0.8 0.0203125 0.0958333
8 0.845312 0.404167 0.015625 0.025
8 0.91875 0.60625 0.04375 0.0958333
9 0.232031 0.453125 0.0140625 0.0229167
8 0.825781 0.403125 0.0296875 0.0270833
8 0.903906 0.435417 0.0578125 0.0625
4 0.732813 0.423958 0.040625 0.0145833
0 0.078125 0.5375 0.015625 0.025
0 0.142969 0.798958 0.0203125 0.09375
8 0.845312 0.404167 0.015625 0.025
9 0.232031 0.452083 0.0109375 0.0208333
8 0.825 0.403125 0.028125 0.0270833
8 0.903906 0.435417 0.0578125 0.0625
4 0.732813 0.423958 0.040625 0.0145833
0 0.078125 0.5375 0.015625 0.025
0 0.142969 0.798958 0.0203125 0.09375
8 0.845312 0.404167 0.015625 0.025
9 0.232031 0.452083 0.0109375 0.0208333
8 0.825 0.403125 0.028125 0.0270833
8 0.903906 0.435417 0.0578125 0.0625
0 0.308594 0.877083 0.0328125 0.0875
0 0.078125 0.536458 0.015625 0.0270833
0 0.142969 0.797917 0.0203125 0.0958333
8 0.845312 0.40625 0.015625 0.025
8 0.826563 0.404167 0.028125 0.025
8 0.902344 0.438542 0.0578125 0.0604167
0 0.308594 0.877083 0.0328125 0.0875
0 0.078125 0.536458 0.015625 0.0270833
0 0.142969 0.797917 0.0203125 0.0958333
8 0.845312 0.40625 0.015625 0.025
8 0.826563 0.404167 0.028125 0.025
8 0.902344 0.438542 0.0578125 0.0604167
0 0.078125 0.536458 0.0125 0.0229167
0 0.14375 0.8 0.021875 0.0958333
8 0.91875 0.611458 0.04375 0.102083
8 0.845312 0.40625 0.015625 0.025
8 0.825781 0.404167 0.0265625 0.025
8 0.903125 0.438542 0.05625 0.0604167
0 0.078125 0.536458 0.0125 0.0229167
0 0.14375 0.8 0.021875 0.0958333
8 0.91875 0.611458 0.04375 0.102083
8 0.845312 0.40625 0.015625 0.025
8 0.825781 0.404167 0.0265625 0.025
8 0.903125 0.438542 0.05625 0.0604167
0 0.078125 0.535417 0.0125 0.0291667
0 0.14375 0.801042 0.021875 0.09375
8 0.84375 0.405208 0.01875 0.0270833
8 0.91875 0.605208 0.04375 0.09375
8 0.828125 0.404167 0.03125 0.025
8 0.903125 0.436458 0.05625 0.05625
0 0.078125 0.535417 0.0125 0.0291667
0 0.14375 0.801042 0.021875 0.09375
8 0.84375 0.405208 0.01875 0.0270833
8 0.91875 0.605208 0.04375 0.09375
8 0.828125 0.404167 0.03125 0.025
8 0.903125 0.436458 0.05625 0.05625
0 0.655469 0.489583 0.0109375 0.025
0 0.14375 0.8 0.021875 0.0916667
9 0.232812 0.453125 0.0125 0.0229167
8 0.845312 0.404167 0.015625 0.025
8 0.91875 0.609375 0.04375 0.102083
8 0.825781 0.403125 0.0265625 0.0270833
8 0.903125 0.433333 0.05625 0.0583333
0 0.655469 0.489583 0.0109375 0.025
0 0.14375 0.8 0.021875 0.0916667
9 0.232812 0.453125 0.0125 0.0229167
8 0.845312 0.404167 0.015625 0.025
8 0.91875 0.609375 0.04375 0.102083
8 0.825781 0.403125 0.0265625 0.0270833
8 0.903125 0.433333 0.05625 0.0583333
0 0.142969 0.8 0.0203125 0.0916667
8 0.845312 0.404167 0.015625 0.025
9 0.232812 0.452083 0.0125 0.0208333
8 0.91875 0.597917 0.04375 0.0791667
8 0.825 0.403125 0.025 0.0270833
8 0.903125 0.433333 0.05625 0.0583333
0 0.142969 0.8 0.0203125 0.0916667
8 0.845312 0.404167 0.015625 0.025
9 0.232812 0.452083 0.0125 0.0208333
8 0.91875 0.597917 0.04375 0.0791667
8 0.825 0.403125 0.025 0.0270833
8 0.903125 0.433333 0.05625 0.0583333
4 0.73125 0.423958 0.04375 0.0145833
0 0.078125 0.5375 0.0125 0.0291667
0 0.142969 0.801042 0.0203125 0.0979167
8 0.83125 0.404167 0.0375 0.025
8 0.902344 0.440625 0.0578125 0.0645833
4 0.73125 0.423958 0.04375 0.0145833
0 0.078125 0.5375 0.0125 0.0291667
0 0.142969 0.801042 0.0203125 0.0979167
8 0.83125 0.404167 0.0375 0.025
8 0.902344 0.440625 0.0578125 0.0645833
0 0.0773437 0.5375 0.0140625 0.0291667
0 0.142969 0.8 0.0203125 0.0916667
8 0.91875 0.6125 0.04375 0.1
8 0.83125 0.405208 0.0375 0.0270833
8 0.901563 0.438542 0.05625 0.0604167
0 0.0773437 0.5375 0.0140625 0.0291667
0 0.142969 0.8 0.0203125 0.0916667
8 0.91875 0.6125 0.04375 0.1
8 0.83125 0.405208 0.0375 0.0270833
8 0.901563 0.438542 0.05625 0.0604167
8 0.192969 0.839583 0.351562 0.3125
0 0.0773437 0.538542 0.0140625 0.0270833
0 0.139062 0.803125 0.028125 0.0979167
9 0.232812 0.453125 0.0125 0.0229167
8 0.83125 0.404167 0.0375 0.025
8 0.917188 0.613542 0.040625 0.102083
8 0.901563 0.439583 0.05625 0.0625
8 0.192969 0.839583 0.351562 0.3125
0 0.0773437 0.538542 0.0140625 0.0270833
0 0.139062 0.803125 0.028125 0.0979167
9 0.232812 0.453125 0.0125 0.0229167
8 0.83125 0.404167 0.0375 0.025
8 0.917188 0.613542 0.040625 0.102083
8 0.901563 0.439583 0.05625 0.0625
8 0.192188 0.838542 0.359375 0.314583
0 0.078125 0.536458 0.0125 0.0270833
0 0.133594 0.805208 0.0296875 0.102083
10 0.917969 0.611458 0.0421875 0.102083
9 0.232812 0.452083 0.0125 0.0208333
8 0.832812 0.403125 0.040625 0.0270833
8 0.903906 0.436458 0.0578125 0.0645833
8 0.192188 0.838542 0.359375 0.314583
0 0.078125 0.536458 0.0125 0.0270833
0 0.133594 0.805208 0.0296875 0.102083
10 0.917969 0.611458 0.0421875 0.102083
9 0.232812 0.452083 0.0125 0.0208333
8 0.832812 0.403125 0.040625 0.0270833
8 0.903906 0.436458 0.0578125 0.0645833
8 0.91875 0.610417 0.040625 0.104167
8 0.832812 0.402083 0.040625 0.0291667
8 0.903906 0.433333 0.0578125 0.0583333
8 0.91875 0.610417 0.040625 0.104167
8 0.832812 0.402083 0.040625 0.0291667
8 0.903906 0.433333 0.0578125 0.0583333
0 0.65625 0.488542 0.009375 0.01875
0 0.117969 0.80625 0.0296875 0.0875
8 0.192969 0.835417 0.373437 0.329167
9 0.233594 0.451042 0.0109375 0.0229167
8 0.832812 0.403125 0.040625 0.0270833
8 0.903125 0.433333 0.05625 0.0541667
8 0.190625 0.838542 0.36875 0.31875
0 0.144531 0.770833 0.0140625 0.025
0 0.0789063 0.535417 0.0140625 0.0208333
0 0.114063 0.808333 0.034375 0.0875
9 0.233594 0.451042 0.0109375 0.0229167
8 0.832812 0.403125 0.040625 0.0270833
8 0.903125 0.433333 0.05625 0.0541667
8 0.190625 0.838542 0.36875 0.31875
0 0.144531 0.770833 0.0140625 0.025
0 0.0789063 0.535417 0.0140625 0.0208333
0 0.114063 0.808333 0.034375 0.0875
10 0.91875 0.614583 0.04375 0.108333
9 0.232812 0.452083 0.0125 0.0208333
8 0.832812 0.404167 0.040625 0.025
8 0.901563 0.4375 0.059375 0.0583333
0 0.078125 0.536458 0.0125 0.0270833
0 0.144531 0.770833 0.0140625 0.025
0 0.114844 0.807292 0.0328125 0.0854167
10 0.91875 0.614583 0.04375 0.108333
9 0.232812 0.452083 0.0125 0.0208333
8 0.832812 0.404167 0.040625 0.025
8 0.901563 0.4375 0.059375 0.0583333
0 0.078125 0.536458 0.0125 0.0270833
0 0.144531 0.770833 0.0140625 0.025
0 0.114844 0.807292 0.0328125 0.0854167
8 0.919531 0.6 0.0421875 0.0833333
8 0.832812 0.404167 0.040625 0.025
8 0.903125 0.440625 0.05625 0.0645833
0 0.11875 0.80625 0.025 0.0875
8 0.91875 0.60625 0.04375 0.0916667
8 0.83125 0.403125 0.0375 0.0270833
8 0.903125 0.434375 0.05625 0.05625
0 0.11875 0.80625 0.025 0.0875
8 0.91875 0.60625 0.04375 0.0916667
8 0.83125 0.403125 0.0375 0.0270833
8 0.903125 0.434375 0.05625 0.05625
0 0.11875 0.80625 0.025 0.0833333
8 0.91875 0.610417 0.04375 0.104167
8 0.844531 0.404167 0.0203125 0.025
9 0.233594 0.451042 0.0109375 0.0229167
8 0.830469 0.403125 0.0359375 0.0270833
8 0.903906 0.435417 0.0578125 0.0625
0 0.11875 0.80625 0.025 0.0833333
8 0.91875 0.610417 0.04375 0.104167
8 0.844531 0.404167 0.0203125 0.025
9 0.233594 0.451042 0.0109375 0.0229167
8 0.830469 0.403125 0.0359375 0.0270833
8 0.903906 0.435417 0.0578125 0.0625
0 0.11875 0.80625 0.025 0.0833333
