0 0.402344 0.922917 0.0578125 0.104167
0 0.402344 0.922917 0.0578125 0.104167
0 0.402344 0.923958 0.0578125 0.102083
0 0.402344 0.923958 0.0578125 0.102083
0 0.402344 0.922917 0.0578125 0.104167
0 0.402344 0.922917 0.0578125 0.104167
